# Blender 3.6.7 Release Candidate
# www.blender.org
mtllib lzr_laser_hollow_barrel.mtl
g barrel_barrel
v 0.500000 0.500000 0.500000
v 0.500000 0.500000 -0.500000
v 0.500000 -0.500000 0.500000
v 0.500000 -0.500000 -0.500000
v -0.500000 0.500000 0.500000
v -0.500000 0.500000 -0.500000
v -0.500000 -0.500000 0.500000
v -0.500000 -0.500000 -0.500000
v 0.500000 0.500000 0.375000
v -0.500000 0.500000 0.375000
v 0.500000 0.500000 -0.375000
v -0.500000 0.500000 -0.375000
v -0.500000 -0.500000 0.375000
v -0.500000 -0.500000 -0.375000
v 0.500000 -0.500000 0.375000
v 0.500000 -0.500000 -0.375000
v 0.375000 0.500000 -0.375000
v 0.375000 0.500000 0.375000
v -0.375000 0.500000 -0.375000
v -0.375000 0.500000 0.375000
v 0.375000 0.500000 0.500000
v -0.375000 0.500000 0.500000
v 0.375000 -0.500000 0.500000
v -0.375000 -0.500000 0.500000
v 0.375000 -0.500000 0.375000
v -0.375000 -0.500000 0.375000
v 0.375000 -0.500000 -0.375000
v -0.375000 -0.500000 -0.375000
v 0.375000 -0.500000 -0.500000
v -0.375000 -0.500000 -0.500000
v 0.375000 0.500000 -0.500000
v -0.375000 0.500000 -0.500000
vn 1.0000 -0.0000 -0.0000
vn -1.0000 -0.0000 -0.0000
vn -0.0000 -1.0000 -0.0000
vn -0.0000 -0.0000 1.0000
vn -0.0000 -0.0000 -1.0000
vn -0.0000 1.0000 -0.0000
vt 1.000000 1.000000
vt 0.875000 1.000000
vt 0.875000 0.000000
vt 1.000000 0.000000
vt 0.000000 0.000000
vt 0.125000 0.000000
vt 0.125000 1.000000
vt 0.000000 1.000000
vt 1.000000 1.000000
vt 0.875000 1.000000
vt 0.875000 0.875000
vt 1.000000 0.875000
vt 1.000000 0.125000
vt 0.875000 0.125000
vt 0.875000 0.000000
vt 1.000000 0.000000
vt 0.000000 0.125000
vt 0.125000 0.125000
vt 0.125000 0.875000
vt 0.000000 0.875000
vt 0.125000 1.000000
vt 0.000000 1.000000
vt 0.000000 0.000000
vt 0.125000 0.000000
vt 0.875000 0.000000
vt 0.125000 1.000000
vt 0.125000 -0.000000
s 0
usemtl top
f 12/13/6 19/14/6 32/15/6 6/16/6
f 5/9/6 22/10/6 20/11/6 10/12/6
f 10/12/6 20/11/6 19/14/6 12/13/6
f 11/17/6 17/18/6 18/19/6 9/20/6
f 9/20/6 18/19/6 21/21/6 1/22/6
f 18/19/6 20/11/6 22/10/6 21/21/6
f 2/23/6 31/24/6 17/18/6 11/17/6
f 31/24/6 32/15/6 19/14/6 17/18/6
usemtl bottom
f 8/9/3 30/10/3 28/11/3 14/12/3
f 13/13/3 26/14/3 24/15/3 7/16/3
f 14/12/3 28/11/3 26/14/3 13/13/3
f 3/23/3 23/24/3 25/18/3 15/17/3
f 23/24/3 24/15/3 26/14/3 25/18/3
f 15/17/3 25/18/3 27/19/3 16/20/3
f 16/20/3 27/19/3 29/21/3 4/22/3
f 27/19/3 28/11/3 30/10/3 29/21/3
usemtl side
f 2/1/1 11/2/1 16/3/1 4/4/1
f 8/5/2 14/6/2 12/7/2 6/8/2
f 7/5/4 24/6/4 22/7/4 5/8/4
f 6/1/5 32/2/5 30/3/5 8/4/5
f 5/1/2 10/2/2 13/3/2 7/4/2
f 10/2/2 12/7/2 14/6/2 13/3/2
f 3/5/1 15/6/1 9/7/1 1/8/1
f 15/6/1 16/3/1 11/2/1 9/7/1
f 1/1/4 21/2/4 23/3/4 3/4/4
f 21/2/4 22/7/4 24/6/4 23/3/4
f 4/5/5 29/6/5 31/7/5 2/8/5
f 29/6/5 30/3/5 32/2/5 31/7/5
usemtl inside
f 17/7/2 27/6/2 25/3/2 18/2/2
f 19/25/4 28/2/4 27/26/4 17/27/4
f 26/25/5 20/2/5 18/26/5 25/27/5
f 19/3/1 20/6/1 26/7/1 28/2/1
