# Blender 3.6.7 Release Candidate
# www.blender.org
mtllib lzr_laser_pillar_crystal_on.mtl
g Frame_frame
v -0.500083 -0.500083 0.500083
v -0.500083 0.500010 0.500083
v 0.500000 0.437463 0.500000
v 0.500000 -0.500125 0.500000
v 0.500083 0.500010 -0.500083
v 0.500083 -0.500083 -0.500083
v -0.500000 0.437643 -0.500000
v -0.500125 0.500052 -0.500125
v 0.500000 0.437643 -0.500000
v -0.500000 0.437643 0.500000
v -0.500125 -0.500125 -0.500125
v -0.500000 -0.437792 -0.500000
v 0.500000 -0.437792 -0.500000
v -0.500000 -0.437792 0.500000
v -0.437750 -0.437541 -0.500250
v -0.437750 0.437393 -0.500250
v -0.500250 -0.437542 -0.437750
v -0.500250 0.437393 -0.437750
v -0.437750 -0.437542 -0.437750
v -0.437750 0.437500 -0.437750
v -0.500250 -0.437542 0.437750
v -0.500250 0.437393 0.437750
v -0.437750 -0.437542 0.437750
v -0.437750 0.437500 0.437750
v 0.437750 -0.437542 -0.500250
v 0.437750 0.437393 -0.500250
v 0.437750 -0.437625 -0.437750
v 0.437750 0.437500 -0.437750
v 0.500000 -0.437625 0.500000
v 0.500000 0.499963 0.500000
v 0.500000 -0.437625 0.500000
v 0.437500 -0.437625 0.437500
v 0.500000 -0.437708 -0.437500
v -0.437500 -0.437708 0.500000
v 0.500000 0.437553 -0.437500
v -0.437500 0.437553 0.500000
v 0.500000 -0.437667 0.437750
v 0.438250 -0.437667 0.500000
v 0.437726 0.437508 0.500000
v 0.500000 0.437508 0.438600
v 0.437500 0.437508 0.438600
vn -0.0000 -0.0013 1.0000
vn -0.0016 -0.0009 1.0000
vn 0.0040 0.0013 -1.0000
vn -0.0009 -0.7075 0.7067
vn -0.0000 -1.0000 -0.0016
vn 0.6811 -0.6913 0.2412
vn -0.1804 -0.8766 0.4462
vn -1.0000 0.0020 -0.0040
vn -1.0000 0.0005 -0.0032
vn 0.0002 -1.0000 0.0002
vn -1.0000 -0.0000 -0.0040
vn 1.0000 -0.0000 -0.0000
vn -0.0000 -0.0000 1.0000
vn -0.0040 -0.0000 -1.0000
vn -0.0000 -0.0000 -1.0000
vn 0.0040 -0.0000 -1.0000
vn -1.0000 -0.0000 0.0040
vn -1.0000 -0.0000 -0.0000
vn 0.0001 1.0000 0.0001
vn -1.0000 -0.0020 -0.0040
vn -1.0000 -0.0016 -0.0056
vn -1.0000 0.0027 -0.0000
vn -1.0000 0.0043 0.0003
vn -1.0000 -0.0013 0.0040
vn -1.0000 0.0001 0.0032
vn -0.0040 0.0020 -1.0000
vn -0.0056 0.0016 -1.0000
vn -0.0000 -0.0027 -1.0000
vn -0.0014 -0.0012 -1.0000
vn -0.0000 -0.0020 -1.0000
vn 0.0379 -0.7230 -0.6898
vn -0.0008 0.0041 -1.0000
vn 0.0005 0.0043 -1.0000
vn -0.0000 0.0026 -1.0000
vn 0.0040 -0.0013 -1.0000
vn 0.0031 0.0002 -1.0000
vn -0.0000 0.0020 -1.0000
vn -0.0003 0.0031 -1.0000
vn -0.0032 -0.0006 -1.0000
vn -0.0040 -0.0020 -1.0000
vn -1.0000 -0.0020 -0.0000
vn -1.0000 -0.0036 -0.0004
vn -1.0000 0.0013 0.0040
vn -0.7097 -0.6114 -0.3500
vn -1.0000 -0.0041 -0.0008
vn -0.7057 -0.6843 0.1837
vn -1.0000 -0.0026 -0.0000
vn -1.0000 0.0036 0.0008
vn -1.0000 0.0012 -0.0014
vn -1.0000 0.0020 -0.0000
vn 0.0001 -0.0001 1.0000
vn -0.0008 -0.0015 1.0000
vn -0.0014 -0.0021 1.0000
vn 0.0018 1.0000 0.0001
vn -0.0016 1.0000 -0.0000
vn 0.0001 1.0000 0.0018
vn -0.0000 1.0000 -0.0000
vn -0.0040 -0.0000 1.0000
vn 1.0000 -0.0000 -0.0040
vn -1.0000 -0.0003 0.0079
vn 0.0020 0.0011 -1.0000
vn 0.0004 -1.0000 -0.0000
vn -0.0000 -1.0000 0.0004
vn -0.0000 -1.0000 -0.0000
vn 0.0010 1.0000 -0.0000
vn -0.0000 1.0000 0.0017
vn 0.0001 1.0000 -0.0000
vn 1.0000 -0.0013 0.0001
vn 1.0000 -0.0022 -0.0014
vn 1.0000 -0.0013 -0.0000
vn 1.0000 -0.0009 -0.0017
vn 1.0000 0.0013 -0.0000
vn 1.0000 0.0013 0.0001
vn -0.6827 -0.1820 0.7077
vn -0.0000 0.0013 1.0000
vn -0.6199 0.3405 0.7070
vn -0.3810 0.5953 0.7074
vn 0.0001 0.0001 1.0000
vt 0.000183 0.937553
vt 0.062662 0.937464
vt 0.000100 0.999900
vt 0.000085 0.000157
vt 0.062393 0.062674
vt 0.000168 0.062423
vt 0.000125 0.000042
vt 1.000000 0.000000
vt 0.999958 0.999875
vt 0.000208 0.999792
vt 0.000209 0.062424
vt 0.000085 0.000115
vt 0.062434 0.062673
vt 0.062322 0.062572
vt 0.062322 0.000100
vt 0.937428 0.000100
vt 0.937428 0.062572
vt 0.999900 0.062572
vt 0.999900 0.937678
vt 0.937428 0.937678
vt 0.062434 0.937251
vt 0.000209 0.937501
vt 0.937500 0.062500
vt 0.937500 0.937500
vt 1.000000 0.937500
vt 1.000000 0.062500
vt 0.000000 0.937500
vt 0.000000 0.062500
vt 0.062500 0.062500
vt 0.062500 0.937500
vt 0.999760 0.062423
vt 0.999760 0.937501
vt 0.937535 0.937251
vt 0.937535 0.062673
vt 0.000168 0.937501
vt 0.062393 0.937250
vt 0.999802 0.062424
vt 0.999802 0.937501
vt 0.937576 0.937251
vt 0.937577 0.062674
vt 0.062322 0.062572
vt 0.062322 0.000100
vt 0.937428 0.000100
vt 0.937428 0.062572
vt 0.999900 0.062572
vt 0.999900 0.937678
vt 0.937428 0.937678
vt 0.000085 0.999885
vt 0.999884 0.999843
vt 0.999885 0.000115
vt 0.999885 0.999885
vt 0.000085 0.999843
vt 0.999885 0.000157
vt 0.999848 0.999853
vt 0.937595 0.937419
vt 0.999848 0.937374
vt 0.000124 0.937400
vt 0.000087 0.062595
vt 0.062317 0.062551
vt 0.061504 0.937442
vt 0.937282 0.062473
vt 0.999762 0.062387
vt 0.999799 0.937537
vt 0.937319 0.937450
vt 0.000100 0.000183
vt 0.999900 0.000100
vt 0.999900 0.999900
vt 0.000225 0.999858
vt 0.062662 0.062496
vt 0.000183 0.062413
vt 0.938119 0.062537
vt 0.999848 0.062579
vt 0.061472 0.937428
vt 0.937178 0.999900
vt 0.061472 0.999900
vt 0.000100 0.937654
vt 0.000100 0.062822
vt 0.000100 0.062822
vt 0.062572 0.937428
vt 0.000100 0.937678
vt 0.937178 0.999900
vt 0.061822 0.999900
vt 0.000126 0.999879
vt 0.999885 0.999884
vt 0.000084 0.000116
vt 0.999843 0.000115
vt 0.000100 0.000142
vt 0.999848 0.000100
s 0
g Frame_Box
usemtl Box
f 10/1/1 36/2/1 2/3/2
f 6/4/3 25/5/3 13/6/3
f 1/7/4 11/8/5 6/9/6 4/10/7
f 12/11/8 11/12/9 17/13/8
f 24/14/10 22/15/10 18/16/10 20/17/10 16/18/10 26/19/10 28/20/10
f 12/11/11 17/13/11 18/21/11 7/22/11
f 15/23/12 16/24/12 20/25/12 19/26/12
f 19/27/13 20/28/13 18/29/13 17/30/13
f 12/31/14 7/32/14 16/33/14 15/34/14
f 21/24/15 22/23/15 24/26/15 23/25/15
f 9/35/16 13/6/16 25/5/16 26/36/16
f 14/37/17 10/38/17 22/39/17 21/40/17
f 27/27/18 28/28/18 26/29/18 25/30/18
f 27/41/19 25/42/19 15/43/19 19/44/19 17/45/19 21/46/19 23/47/19
f 7/22/20 18/21/20 8/48/21
f 22/39/22 2/49/23 18/21/22
f 10/38/24 2/49/25 22/39/24
f 12/31/26 15/34/26 11/50/27
f 25/5/28 6/4/28 15/34/28
f 11/50/29 15/34/30 6/4/31
f 8/51/32 5/52/33 26/36/34
f 9/35/35 26/36/35 5/52/36
f 26/36/37 16/33/37 8/51/38
f 8/51/39 16/33/40 7/32/40
f 21/40/41 17/13/41 11/12/42
f 14/37/43 21/40/43 1/53/44
f 11/12/45 1/53/46 21/40/47
f 2/49/48 8/48/49 18/21/50
f 30/54/51 2/3/52 39/55/51
f 39/55/13 3/56/13 30/54/13
f 36/2/1 39/55/1 2/3/53
f 3/57/12 29/58/12 37/59/12 40/60/12
f 33/61/12 13/62/12 9/63/12 35/64/12
f 5/65/54 8/66/55 2/67/56 30/68/57
f 33/24/58 35/23/58 28/26/58 27/25/58
f 34/30/59 23/27/59 24/28/59 36/29/59
f 34/69/13 36/2/13 10/1/13 14/70/13
f 39/55/13 38/71/13 29/72/13 3/56/13
f 32/23/60 38/26/60 39/25/60 41/24/60
f 41/28/61 40/29/61 37/30/61 32/27/61
f 41/73/62 28/20/62 35/74/62 40/75/62
f 41/73/63 39/76/63 36/77/63 24/14/63
f 41/73/64 24/14/64 28/20/64
f 33/78/65 27/41/65 32/79/65 37/80/65
f 23/47/66 34/81/66 38/82/66 32/79/66
f 23/47/67 32/79/67 27/41/67
f 3/57/12 40/60/12 30/83/12
f 35/64/12 30/83/12 40/60/12
f 30/83/68 35/64/68 5/84/69
f 9/63/70 5/84/71 35/64/70
f 4/85/12 37/59/12 29/58/12
f 33/61/12 37/59/12 4/85/12
f 6/86/72 13/62/72 33/61/72
f 4/85/73 6/86/73 33/61/73
f 1/87/74 34/69/75 14/70/75
f 38/71/75 34/69/75 1/87/76
f 29/72/13 38/71/13 4/88/13
f 1/87/77 4/88/78 38/71/78
l 29 31
g Crystal_crystal
v 0.500000 0.468750 -0.000000
v 0.000000 0.468750 -0.500000
v -0.500000 0.468750 -0.000000
v 0.000000 0.468750 0.500000
v 0.500000 -0.468750 0.000000
v 0.000000 -0.468750 -0.500000
v -0.500000 -0.468750 0.000000
v 0.000000 -0.468750 0.500000
vn -0.7071 -0.0000 0.7071
vn -0.7071 -0.0000 -0.7071
vn 0.7071 -0.0000 -0.7071
vn 0.7071 -0.0000 0.7071
vt 1.000000 0.999916
vt 0.000084 0.999916
vt 0.000084 0.000084
vt 1.000000 0.000084
s 0
g Crystal_crystal
usemtl crystal
f 45/89/79 44/90/79 48/91/79 49/92/79
f 44/91/80 43/92/80 47/89/80 48/90/80
f 43/89/81 42/90/81 46/91/81 47/92/81
f 45/90/82 49/91/82 46/92/82 42/89/82
g Laser_laser
v -0.062500 -0.062500 0.500000
v 0.062500 -0.062500 0.062500
v 0.062500 0.062500 0.500000
v 0.062500 -0.062500 0.500000
v -0.062500 -0.062500 0.062500
v -0.062500 0.062500 0.500000
v -0.500000 -0.062500 0.062500
v -0.500000 0.062500 0.062500
v -0.500000 -0.062500 -0.062500
v -0.500000 0.062500 -0.062500
v -0.062500 0.062500 -0.062500
v -0.062500 -0.062500 -0.062500
v 0.500000 0.062500 0.062500
v 0.500000 -0.062500 0.062500
v 0.062500 -0.062500 -0.062500
v 0.500000 0.062500 -0.062500
v 0.500000 -0.062500 -0.062500
v -0.062500 0.062500 -0.500000
v -0.062500 -0.062500 -0.500000
v 0.062500 0.062500 -0.500000
v 0.062500 -0.062500 -0.500000
v 0.062500 0.062500 0.062500
v -0.062500 0.062500 0.062500
v 0.062500 0.062500 -0.062500
vn -0.0000 -0.0000 1.0000
vn -0.0000 -0.0000 -1.0000
vn -0.0000 -1.0000 -0.0000
vn -0.0000 1.0000 -0.0000
vn -1.0000 -0.0000 -0.0000
vn 1.0000 -0.0000 -0.0000
vt 0.562500 0.562500
vt 0.562500 1.000000
vt 0.437500 1.000000
vt 0.437500 0.562500
vt 0.437500 0.437500
vt 0.562500 0.437500
vt 0.562500 0.000000
vt 0.437500 0.000000
s 0
g Laser_laser
usemtl laser
f 56/93/83 54/94/83 72/95/83 57/96/83
f 58/95/84 59/94/84 60/93/84 61/96/84
f 54/96/85 56/95/85 58/94/85 61/93/85
f 51/97/85 64/98/85 66/99/85 63/100/85
f 72/96/86 60/93/86 59/94/86 57/95/86
f 63/98/83 62/97/83 71/100/83 51/99/83
f 66/97/84 64/100/84 73/99/84 65/98/84
f 65/99/86 73/98/86 71/97/86 62/100/86
f 71/93/86 73/98/86 60/97/86 72/96/86
f 51/97/85 54/96/85 61/93/85 64/98/85
f 54/96/85 51/93/85 53/94/85 50/95/85
f 64/98/85 61/97/85 68/100/85 70/99/85
f 61/97/87 60/98/87 67/99/87 68/100/87
f 67/100/86 60/97/86 73/98/86 69/99/86
f 52/94/86 71/93/86 72/96/86 55/95/86
f 51/93/88 71/96/88 52/95/88 53/94/88
f 50/95/87 55/94/87 72/93/87 54/96/87
f 70/99/88 69/100/88 73/97/88 64/98/88
