# Blender 3.6.7 Release Candidate
# www.blender.org
mtllib lzr_laser_laser_010.mtl
g laser_laser
v -0.062500 0.500000 -0.062500
v 0.062500 0.500000 0.062500
v -0.062500 0.500000 0.062500
v 0.062500 0.500000 -0.062500
v 0.062500 -0.500000 0.062500
v -0.062500 -0.500000 0.062500
v -0.062500 -0.500000 -0.062500
v 0.062500 -0.500000 -0.062500
vn -1.0000 -0.0000 -0.0000
vn -0.0000 -0.0000 -1.0000
vn 1.0000 -0.0000 -0.0000
vn -0.0000 -0.0000 1.0000
vt 0.562496 0.000035
vt 0.562496 0.999965
vt 0.437504 0.999965
vt 0.437504 0.000035
vt 0.437504 0.000035
vt 0.562496 0.000035
vt 0.437504 0.999965
vt 0.437504 0.000035
s 0
g laser_LaserY
usemtl LaserY
f 1/1/1 7/2/1 6/3/1 3/4/1
f 1/5/2 4/6/2 8/2/2 7/7/2
f 4/5/3 2/6/3 5/2/3 8/3/3
f 3/6/4 6/2/4 5/3/4 2/8/4
