dig,1303,"(15.18396,1.06299,15.33203)",0.048869,2.9007,"(15,2,12)",lzr_laser:skull_shy_takable,2,,,
rotate,10890,"(2.79712,6.38403,6.75781)",-0.86219,1.5149,"(0,11,7)",lzr_laser:double_mirror_10_rotatable,15,,,
rotate,11854,"(2.79712,5.50098,6.75781)",-0.85172,1.8989,"(0,10,6)",lzr_laser:double_mirror_10_rotatable,15,,,
rotate,12648,"(2.79712,5.50098,6.75781)",-0.52342,2.1921,"(0,9,5)",lzr_laser:double_mirror_01_rotatable,13,,,
rotate,14127,"(2.79712,5.50098,6.75781)",-0.0068068,1.3299,"(0,7,7)",lzr_laser:double_mirror_10_rotatable,13,,,
rotate,14997,"(2.79712,5.50098,6.75781)",-0.17785,1.8954,"(0,8,6)",lzr_laser:double_mirror_01_rotatable,13,,,
rotate,16103,"(2.79712,5.50098,6.75781)",-0.17087,2.433,"(0,8,4)",lzr_laser:double_mirror_10_rotatable,15,,,
place,24470,"(10.47791,0.50098,15.24023)",0.35605,0.15708,"(10,1,18)",,,lzr_laser:skull_shy_takable,"(10,1,19)","(10,1,18)"
dig,25915,"(10.75610,2.50098,18.54102)",1.2392,2.4084,"(10,1,18)",lzr_laser:skull_shy_takable,0,,,
place,26743,"(9.11401,2.50098,19.93555)",0.65973,1.5429,"(7,3,20)",,,lzr_laser:skull_shy_takable,"(7,2,20)","(7,3,20)"
dig,28382,"(3.82886,4.50098,18.22266)",0.13963,2.7332,"(3,6,16)",lzr_laser:skull_shy_takable,2,,,
dig,29740,"(6.66699,4.03198,20.30859)",1.3823,3.9689,"(7,3,20)",lzr_laser:skull_shy_takable,3,,,
place,36103,"(13.35999,1.50000,3.54883)",0.55851,4.283,"(15,2,3)",,,lzr_laser:skull_shy_takable 2,"(16,2,3)","(15,2,3)"
dig,38282,"(15.68494,3.50000,2.95117)",1.3683,1.3753,"(15,2,3)",lzr_laser:skull_shy_takable,1,,,
place,39923,"(18.67505,5.11792,3.24805)",0.37699,5.1627,"(20,6,4)",,,lzr_laser:skull_shy_takable 2,"(21,6,4)","(20,6,4)"
place,42136,"(19.62891,6.50098,4.09961)",0.37699,5.969,"(20,7,7)",,,lzr_laser:skull_shy_takable,"(21,7,7)","(20,7,7)"
dig,43931,"(19.68201,7.50000,6.32422)",0.90757,3.4104,"(20,6,4)",lzr_laser:skull_shy_takable,1,,,
dig,45358,"(19.79199,8.50098,8.92188)",0.99484,3.358,"(20,7,7)",lzr_laser:skull_shy_takable,0,,,
place,51831,"(17.24902,10.50098,16.18164)",0.58294,1.1449,"(14,10,17)",,,lzr_laser:skull_shy_takable 2,"(14,10,18)","(14,10,17)"
place,53596,"(13.97595,10.50098,16.78125)",0.65624,1.2915,"(11,10,17)",,,lzr_laser:skull_shy_takable,"(11,10,18)","(11,10,17)"
dig,55083,"(11.57300,10.50098,16.86328)",0.79587,4.9812,"(14,10,17)",lzr_laser:skull_shy_takable,3,,,
dig,56890,"(8.26794,9.50098,16.69531)",0.31067,4.9009,"(11,10,17)",lzr_laser:skull_shy_takable,3,,,
place,58181,"(8.26794,9.50098,16.69531)",0.62483,2.6529,"(8,10,15)",,,lzr_laser:skull_shy_takable 2,"(7,10,15)","(8,10,15)"
place,59623,"(8.14905,10.50098,15.17383)",0.89361,0.747,"(8,11,16)",,,lzr_laser:skull_shy_takable,"(7,11,16)","(8,11,16)"
dig,60194,"(8.13403,11.54492,15.22266)",1.4207,1.9129,"(8,10,15)",lzr_laser:skull_shy_takable,2,,,
place,60700,"(8.07397,11.50098,15.41016)",1.0926,2.0106,"(8,12,15)",,,lzr_laser:skull_shy_takable,"(7,12,15)","(8,12,15)"
dig,61463,"(8.06702,12.50098,15.33203)",1.3334,0.53756,"(8,11,16)",lzr_laser:skull_shy_takable,0,,,
place,62132,"(8.08203,12.50098,14.85742)",0.86219,0.54454,"(8,13,16)",,,lzr_laser:skull_shy_takable,"(7,13,16)","(8,13,16)"
dig,63020,"(8.10706,13.50098,15.72070)",1.2462,2.6913,"(8,12,15)",lzr_laser:skull_shy_takable,2,,,
place,63506,"(8.17798,13.50098,15.89453)",0.89012,2.5272,"(8,14,15)",,,lzr_laser:skull_shy_takable,"(7,14,15)","(8,14,15)"
dig,64411,"(8.39392,14.50098,15.41797)",1.309,0.69813,"(8,13,16)",lzr_laser:skull_shy_takable,0,,,
place,65014,"(8.36597,14.50098,15.09570)",0.83078,0.72257,"(8,15,16)",,,lzr_laser:skull_shy_takable,"(7,15,16)","(8,15,16)"
dig,65935,"(8.23901,15.50098,15.77344)",1.3823,2.5936,"(8,14,15)",lzr_laser:skull_shy_takable,2,,,
place,66597,"(8.23901,15.50098,15.77344)",0.84823,2.4539,"(8,16,15)",,,lzr_laser:skull_shy_takable,"(7,16,15)","(8,16,15)"
dig,67305,"(8.32202,16.50098,15.25391)",1.2706,0.93201,"(8,15,16)",lzr_laser:skull_shy_takable,0,,,
place,67877,"(8.37500,16.50098,14.94336)",0.78191,0.77493,"(8,17,16)",,,lzr_laser:skull_shy_takable,"(7,17,16)","(8,17,16)"
dig,68564,"(8.37207,17.50000,15.58008)",1.3439,2.2061,"(8,16,15)",lzr_laser:skull_shy_takable,2,,,
place,69065,"(8.37207,17.50000,15.58008)",0.79238,2.1258,"(8,18,15)",,,lzr_laser:skull_shy_takable,"(7,18,15)","(8,18,15)"
dig,69686,"(8.31506,18.50000,15.29492)",1.2741,0.89361,"(8,17,16)",lzr_laser:skull_shy_takable,0,,,
dig,70591,"(7.09802,18.50000,15.28711)",1.1484,4.0108,"(8,18,15)",lzr_laser:skull_shy_takable,2,,,
place,71965,"(6.08691,18.50000,12.96289)",0.91804,3.8083,"(7,19,12)",,,lzr_laser:skull_shy_takable 2,"(7,18,12)","(7,19,12)"
dig,73341,"(8.69006,20.50098,12.13086)",1.0367,1.8989,"(7,19,12)",lzr_laser:skull_shy_takable,2,,,
place,74148,"(8.69006,20.50098,12.13086)",0.61785,4.5623,"(11,20,12)",,,lzr_laser:skull_shy_takable 2,"(12,20,12)","(11,20,12)"
dig,76903,"(9.16406,20.50000,11.93164)",0.79238,4.6426,"(11,20,12)",lzr_laser:skull_shy_takable,1,,,
place,77254,"(9.16406,20.50000,11.93164)",0.55152,4.6565,"(11,21,12)",,,lzr_laser:skull_shy_takable 2,"(12,21,12)","(11,21,12)"
dig,79451,"(11.64709,22.50098,10.22656)",1.0297,0.62134,"(11,21,12)",lzr_laser:skull_shy_takable,1,,,
find_treasure,82702,"(11.85388,24.50000,2.25000)",0.29304,1.6232,"(9,25,2)",,,,,
find_treasure,90794,"(16.96191,9.50098,0.49609)",0.27908,1.3858,"(13,10,1)",,,,,