dig,2295,"(5.51099,0.50098,7.60938)",0.49218,5.1241,"(8,1,8)",lzr_laser:crate_old,0,,,
dig,2553,"(5.51099,0.50098,7.60938)",0.58277,4.6599,"(8,1,7)",lzr_laser:crate_old,0,,,
dig,2891,"(5.51099,0.50098,7.60938)",0.32446,4.7227,"(9,1,8)",lzr_laser:crate_old,0,,,
dig,3325,"(5.51099,0.50098,7.60938)",0.27559,5.2255,"(8,2,9)",lzr_laser:crate_old,0,,,
dig,3996,"(4.85095,0.50098,7.68164)",0.60388,1.4137,"(2,1,8)",lzr_laser:crate_old,0,,,
dig,4482,"(4.60803,0.50098,8.01172)",0.44314,1.7523,"(2,1,7)",lzr_laser:skull_cursed_takable_on,1,,,
dig,4634,"(4.17603,0.50098,8.01953)",0.60737,2.6704,"(4,1,7)",lzr_laser:skull_cursed_takable_on,3,,,
dig,4781,"(4.04102,0.50098,7.87109)",0.85521,2.4295,"(3,1,7)",lzr_laser:skull_cursed_takable_on,1,,,
dig,4930,"(3.93689,0.50098,7.85938)",0.40492,1.686,"(1,1,7)",lzr_laser:skull_cursed_takable_on,2,,,
dig,5502,"(2.25098,0.50098,8.51953)",0.34208,1.0402,"(1,1,10)",lzr_laser:crate_old,0,,,
dig,5886,"(2.21191,0.50098,9.01953)",0.71558,1.2008,"(1,1,9)",lzr_laser:skull_cursed_takable_on,3,,,
dig,6289,"(2.17407,0.50098,8.43555)",0.7086,3.0229,"(2,1,6)",lzr_laser:crate_old,0,,,
dig,6441,"(2.17310,0.50098,8.38477)",0.61436,2.2899,"(1,1,8)",lzr_laser:skull_cursed_takable_on,3,,,
dig,6656,"(2.16309,0.50098,8.37109)",0.60737,2.4504,"(1,1,6)",lzr_laser:skull_cursed_takable_on,2,,,
dig,6891,"(1.73499,0.50098,7.73633)",0.54454,2.6564,"(1,1,5)",lzr_laser:skull_cursed_takable_on,2,,,
dig,7041,"(1.51794,0.50098,7.18164)",0.51662,2.8205,"(1,1,4)",lzr_laser:skull_cursed_takable_on,3,,,
dig,7211,"(1.36401,0.50098,6.54883)",0.49916,2.995,"(1,1,3)",lzr_laser:skull_cursed_takable_on,3,,,
dig,7361,"(1.28687,0.50098,5.96875)",0.66672,3.8258,"(2,1,5)",lzr_laser:crate_old,0,,,
dig,7511,"(1.13696,0.50098,5.41016)",0.45029,3.3022,"(2,1,2)",lzr_laser:crate_old,0,,,
dig,7852,"(0.85095,0.50098,4.31836)",0.38746,2.9671,"(1,1,2)",lzr_laser:crate_old,0,,,
dig,8198,"(0.88110,0.50098,2.95703)",0.57945,4.1364,"(3,1,2)",lzr_laser:crate_old,0,,,
dig,8416,"(1.17114,0.50098,2.59375)",0.59341,4.7124,"(3,1,3)",lzr_laser:skull_cursed_takable_on,1,,,
dig,8565,"(1.22302,0.50098,2.63477)",0.64926,5.4594,"(3,1,4)",lzr_laser:skull_cursed_takable_on,1,,,
dig,8715,"(1.57690,0.50098,3.00586)",0.55851,5.62,"(3,1,5)",lzr_laser:skull_cursed_takable_on,0,,,
dig,8866,"(1.76404,0.50098,3.55469)",0.39794,6.0284,"(3,1,6)",lzr_laser:skull_cursed_takable_on,1,,,
dig,9016,"(1.89807,0.50098,4.12305)",0.39794,6.0877,"(3,1,8)",lzr_laser:skull_cursed_takable_on,1,,,
dig,9285,"(1.99805,0.50098,5.17383)",0.33859,6.1366,"(3,1,9)",lzr_laser:skull_cursed_takable_on,1,,,
dig,9435,"(2.07788,0.50098,5.76367)",0.29322,6.1052,"(3,1,10)",lzr_laser:crate_old,0,,,
dig,9940,"(3.06091,0.50098,7.12695)",0.34208,4.8415,"(6,1,7)",lzr_laser:skull_cursed_takable_on,0,,,
dig,12617,"(10.21191,1.50000,2.37305)",0.67003,3.9235,"(12,1,0)",lzr_laser:crate_old,0,,,
dig,13071,"(11.78906,0.95386,1.74414)",0.35238,4.6705,"(16,1,2)",lzr_laser:crate_old,0,,,
dig,13221,"(12.15002,0.50000,1.74414)",0.33842,4.7159,"(14,1,2)",lzr_laser:skull_cursed_takable_on,2,,,
dig,13624,"(12.15002,0.50000,1.74414)",0.51313,4.7892,"(13,1,2)",lzr_laser:skull_cursed_takable_on,2,,,
dig,13779,"(12.48010,0.50000,1.83984)",1.5621,5.0615,"(12,1,2)",lzr_laser:skull_cursed_takable_on,2,,,
dig,14577,"(14.52698,0.50000,1.77148)",0.35064,4.6391,"(18,1,2)",lzr_laser:skull_cursed_takable_on,2,,,
dig,14728,"(15.12109,0.50000,1.77148)",0.35762,4.7333,"(19,1,2)",lzr_laser:skull_cursed_takable_on,2,,,
dig,15080,"(16.23596,0.50000,2.36914)",0.35762,5.7247,"(18,1,6)",lzr_laser:skull_cursed_takable_on,0,,,
dig,15383,"(16.82593,0.50000,3.39844)",0.44139,6.0388,"(17,1,6)",lzr_laser:skull_cursed_takable_on,0,,,
dig,15535,"(16.86194,0.50000,3.69531)",0.50772,0.21293,"(16,1,6)",lzr_laser:skull_cursed_takable_on,0,,,
place,17108,"(13.64709,0.50000,5.21289)",0.29828,1.295,"(11,1,6)",,,lzr_laser:skull_cursed_takable 25,"(10,1,6)","(11,1,6)"
place,17378,"(13.84705,0.50000,5.99023)",0.046949,1.302,"(11,2,7)",,,lzr_laser:skull_cursed_takable 24,"(10,2,7)","(11,2,7)"
place,18920,"(13.56506,0.50000,6.67969)",-0.19024,1.1065,"(11,3,8)",,,lzr_laser:skull_cursed_takable 23,"(10,3,8)","(11,3,8)"
place,20746,"(16.10193,0.50000,6.71289)",0.067893,4.7054,"(19,2,7)",,,lzr_laser:skull_cursed_takable 22,"(20,2,7)","(19,2,7)"
place,22170,"(16.76794,0.50000,6.75391)",0.20752,4.9428,"(18,2,7)",,,lzr_laser:skull_cursed_takable 21,"(19,2,7)","(18,2,7)"
place,27230,"(16.74390,2.50098,11.90820)",0.036477,5.3826,"(19,4,14)",,,lzr_laser:skull_cursed_takable 20,"(20,4,14)","(19,4,14)"
place,27649,"(16.83105,2.60498,11.85547)",0.11676,5.7386,"(18,4,14)",,,lzr_laser:skull_cursed_takable 19,"(18,4,15)","(18,4,14)"
place,31658,"(18.62305,4.50000,13.79102)",0.61942,1.295,"(16,4,14)",,,lzr_laser:skull_cursed_takable 18,"(16,4,15)","(16,4,14)"
dig,32509,"(18.62305,5.52588,13.79102)",1.4188,5.3896,"(19,4,14)",lzr_laser:skull_cursed_takable_on,1,,,
place,33789,"(15.94702,4.50098,13.50781)",0.63687,1.2392,"(13,4,14)",,,lzr_laser:skull_cursed_takable 18,"(13,4,15)","(13,4,14)"
place,34912,"(13.12695,4.50098,13.68555)",0.60545,1.3055,"(10,4,14)",,,lzr_laser:skull_cursed_takable 17,"(10,4,15)","(10,4,14)"
place,37409,"(10.30701,4.50000,13.84961)",0.68574,1.316,"(8,4,14)",,,lzr_laser:skull_cursed_takable 16,"(8,4,15)","(8,4,14)"
place,38800,"(8.09705,4.50098,13.55664)",0.67178,1.1868,"(6,4,14)",,,lzr_laser:skull_cursed_takable 15,"(6,4,15)","(6,4,14)"
rotate,42241,"(1.88599,4.50098,16.23438)",0.4763,6.2027,"(2,5,18)",lzr_laser:mirror_rotatable,1,,,
rotate,43192,"(1.88599,4.50098,16.23438)",0.63338,5.906,"(2,5,18)",lzr_laser:mirror_rotatable,0,,,
dig,45891,"(5.67798,1.11401,11.88672)",1.1046,4.81,"(7,0,12)",lzr_laser:crate_old,0,,,
dig,46093,"(5.67798,-0.49902,11.88672)",0.9615,5.3894,"(7,0,13)",lzr_laser:skull_cursed_takable_on,3,,,
rotate,50118,"(6.96411,2.50000,17.48633)",-0.99658,5.8537,"(7,6,19)",lzr_laser:mirror_rotatable,21,,,
rotate,51077,"(6.96411,2.50000,17.48633)",-1.1222,6.112,"(7,6,19)",lzr_laser:mirror_rotatable_on_4,11,,,
dig,56594,"(12.36987,0.06006,16.91992)",0.68923,5.0403,"(14,0,17)",lzr_laser:crate_old,0,,,
dig,56884,"(13.20093,0.06299,17.45703)",0.47979,4.5132,"(15,1,17)",lzr_laser:crate_old,0,,,
rotate,59842,"(19.87305,3.50000,17.51953)",0.15516,1.4659,"(18,5,18)",lzr_laser:mirror_rotatable,0,,,
rotate,60549,"(19.87305,3.50000,17.51953)",0.3646,1.253,"(18,5,18)",lzr_laser:mirror_rotatable_on_4,12,,,
dig,61057,"(19.87305,3.50000,17.51953)",0.72763,1.2355,"(18,4,18)",lzr_laser:skull_cursed_takable_on,3,,,
dig,61208,"(19.87305,3.50000,17.51953)",0.9999,1.2076,"(18,3,18)",lzr_laser:skull_cursed_takable_on,3,,,
dig,61359,"(19.87305,3.50000,17.51953)",1.0069,1.2076,"(18,2,18)",lzr_laser:skull_cursed_takable_on,3,,,
rotate,62533,"(19.87305,3.50000,17.51953)",0.3646,1.2146,"(18,5,18)",lzr_laser:mirror_rotatable_on_4,20,,,
dig,65718,"(12.45508,5.50000,18.64453)",0.56008,1.7626,"(9,5,18)",lzr_laser:skull_cursed_takable_on,3,,,
place,66472,"(12.36694,5.50000,18.63086)",0.45885,1.4415,"(9,6,19)",,,lzr_laser:skull_cursed_takable 19,"(9,5,19)","(9,6,19)"
place,66842,"(12.36694,5.50000,18.63086)",0.45885,1.4031,"(10,6,19)",,,lzr_laser:skull_cursed_takable 18,"(9,6,19)","(10,6,19)"
place,67547,"(12.36694,5.50000,18.63086)",0.57055,1.3577,"(11,6,19)",,,lzr_laser:skull_cursed_takable 17,"(10,6,19)","(11,6,19)"
dig,68234,"(11.39001,6.50000,18.72266)",0.80791,1.4973,"(10,6,19)",lzr_laser:skull_cursed_takable_on,3,,,
dig,68386,"(11.25098,6.50000,18.73047)",0.80791,1.4973,"(9,6,19)",lzr_laser:skull_cursed_takable_on,3,,,
place,69746,"(11.25098,6.50000,18.73047)",0.33667,0.57927,"(10,7,21)",,,lzr_laser:skull_cursed_takable 18,"(9,7,21)","(10,7,21)"
dig,75501,"(12.15002,-0.49902,14.07227)",0.49044,3.0995,"(12,0,12)",lzr_laser:crate_old,0,,,
dig,83122,"(2.58911,4.27393,13.79492)",0.21817,0.25115,"(2,5,16)",lzr_laser:skull_cursed_takable_on,0,,,
dig,83743,"(1.12695,4.50000,15.49609)",0.32289,5.6023,"(4,5,18)",lzr_laser:skull_cursed_takable_on,1,,,
rotate,84646,"(1.22498,4.50000,16.32227)",0.51138,5.6861,"(2,5,18)",lzr_laser:mirror_rotatable_on_4,4,,,
rotate,84819,"(1.22498,4.50000,16.32227)",0.51138,5.6861,"(2,5,18)",lzr_laser:mirror_rotatable_on_4,22,,,
dig,85475,"(0.77209,4.50000,17.59766)",0.32638,5.9305,"(2,5,21)",lzr_laser:skull_cursed_takable_on,0,,,
rotate,86493,"(0.55200,4.50000,18.02148)",0.43808,4.419,"(2,5,18)",lzr_laser:mirror_rotatable_on_4,4,,,
rotate,86649,"(0.55200,4.50000,18.02148)",0.43808,4.419,"(2,5,18)",lzr_laser:mirror_rotatable_on_4,0,,,
place,88689,"(0.85095,4.50098,11.19531)",0.9896,4.2759,"(2,5,11)",,,lzr_laser:skull_cursed_takable 20,"(2,4,11)","(2,5,11)"
place,89879,"(0.67700,4.50098,10.27734)",0.75922,4.8728,"(2,5,10)",,,lzr_laser:skull_cursed_takable 19,"(2,5,11)","(2,5,10)"
dig,90518,"(1.44006,5.50293,10.38086)",1.0524,5.344,"(2,5,11)",lzr_laser:skull_cursed_takable_on,1,,,
place,91876,"(1.79492,5.50098,9.15625)",1.419,0.031242,"(2,5,9)",,,lzr_laser:skull_cursed_takable 19,"(2,5,10)","(2,5,9)"
place,92635,"(1.79492,5.50098,8.20898)",1.419,0.027925,"(2,5,8)",,,lzr_laser:skull_cursed_takable 18,"(2,5,9)","(2,5,8)"
place,93397,"(1.79492,5.50098,7.20508)",1.419,0.027925,"(2,5,7)",,,lzr_laser:skull_cursed_takable 17,"(2,5,8)","(2,5,7)"
place,94117,"(1.79492,5.50098,6.26953)",1.419,0.027925,"(2,6,7)",,,lzr_laser:skull_cursed_takable 16,"(2,5,7)","(2,6,7)"
place,94971,"(1.79492,5.50000,6.15625)",1.419,0.027925,"(2,5,6)",,,lzr_laser:skull_cursed_takable 15,"(2,5,7)","(2,5,6)"
place,95826,"(1.79492,5.50000,5.15625)",1.419,0.027925,"(2,5,5)",,,lzr_laser:skull_cursed_takable 14,"(2,5,6)","(2,5,5)"
place,96715,"(1.79492,5.50000,4.15625)",1.419,0.027925,"(2,5,4)",,,lzr_laser:skull_cursed_takable 13,"(2,5,5)","(2,5,4)"
dig,97435,"(1.79492,5.50000,3.99609)",0.83601,6.1959,"(2,5,6)",lzr_laser:skull_cursed_takable_on,1,,,
dig,98692,"(1.84399,5.50098,4.91016)",0.53913,6.2029,"(2,5,8)",lzr_laser:skull_cursed_takable_on,2,,,
place,100532,"(1.89001,5.50098,4.53125)",0.67178,3.1172,"(2,5,2)",,,lzr_laser:skull_cursed_takable 14,"(2,5,1)","(2,5,2)"
dig,102225,"(2.89197,7.45288,1.22656)",0.36809,4.7473,"(6,8,1)",lzr_laser:skull_cursed_takable_on,1,,,
dig,102377,"(3.15002,6.97314,1.23047)",0.23544,4.6496,"(7,8,1)",lzr_laser:skull_cursed_takable_on,1,,,
dig,102948,"(3.67114,7.56689,1.14063)",0.22846,4.6705,"(8,8,1)",lzr_laser:skull_cursed_takable_on,1,,,
dig,103215,"(4.69897,7.50098,1.13477)",0.26686,4.6775,"(9,8,1)",lzr_laser:skull_cursed_takable_on,1,,,
place,104153,"(7.56311,7.50098,2.18359)",0.68225,5.4035,"(9,7,4)",,,lzr_laser:skull_cursed_takable 17,"(10,7,4)","(9,7,4)"
place,105145,"(8.58105,7.50098,3.96875)",0.75573,5.791,"(9,7,6)",,,lzr_laser:skull_cursed_takable 16,"(10,7,6)","(9,7,6)"
rotate,108207,"(8.83105,7.50098,10.15039)",0.53564,1.9652,"(7,8,9)",lzr_laser:mirror_rotatable,15,,,
rotate,108358,"(8.83105,7.50098,10.15039)",0.53564,1.9652,"(7,8,9)",lzr_laser:mirror_rotatable,3,,,
dig,112024,"(9.07886,7.50098,2.24805)",0.71716,6.0842,"(9,7,4)",lzr_laser:skull_cursed_takable_on,0,,,
dig,112260,"(9.07886,7.50098,2.24805)",0.60196,0.059342,"(9,7,6)",lzr_laser:skull_cursed_takable_on,0,,,
place,113533,"(9.91309,7.50098,1.71484)",1.136,3.3371,"(10,8,1)",,,lzr_laser:skull_cursed_takable 17,"(10,7,1)","(10,8,1)"
place,114905,"(10.63599,8.50098,1.36328)",1.4362,2.7471,"(11,8,1)",,,lzr_laser:skull_cursed_takable 16,"(10,8,1)","(11,8,1)"
place,116412,"(11.84302,8.50098,1.37891)",1.2793,2.3213,"(11,9,1)",,,lzr_laser:skull_cursed_takable 15,"(11,8,1)","(11,9,1)"
place,116933,"(11.84302,8.50098,1.37891)",1.2933,2.3632,"(12,8,1)",,,lzr_laser:skull_cursed_takable 14,"(11,8,1)","(12,8,1)"
place,117855,"(12.84302,8.50000,1.37891)",1.2933,2.3632,"(13,8,1)",,,lzr_laser:skull_cursed_takable 13,"(12,8,1)","(13,8,1)"
place,118809,"(13.84302,8.50000,1.37891)",1.2933,2.3632,"(14,8,1)",,,lzr_laser:skull_cursed_takable 12,"(13,8,1)","(14,8,1)"
place,119999,"(14.84302,8.50000,1.37891)",1.2933,2.3632,"(15,8,1)",,,lzr_laser:skull_cursed_takable 11,"(14,8,1)","(15,8,1)"
place,120973,"(15.84302,8.50000,1.37891)",1.2933,2.3632,"(16,8,1)",,,lzr_laser:skull_cursed_takable 10,"(15,8,1)","(16,8,1)"
dig,122175,"(17.38904,9.51611,1.22852)",0.89884,4.5937,"(20,8,1)",lzr_laser:skull_cursed_takable_on,1,,,
dig,122352,"(18.04810,9.38696,1.19141)",0.9512,4.9951,"(20,8,2)",lzr_laser:crate_old,0,,,
place,125222,"(19.01501,8.50098,3.84375)",0.53931,5.8015,"(20,8,7)",,,lzr_laser:skull_cursed_takable 10,"(21,8,7)","(20,8,7)"
place,125675,"(19.01501,8.50098,3.84375)",0.64403,5.8085,"(20,8,6)",,,lzr_laser:skull_cursed_takable 9,"(20,8,7)","(20,8,6)"
dig,130013,"(16.38501,8.50098,1.30664)",0.79762,1.6581,"(15,8,1)",lzr_laser:skull_cursed_takable_on,2,,,
dig,130606,"(14.80994,9.53003,1.22266)",0.90234,1.6371,"(13,8,1)",lzr_laser:skull_cursed_takable_on,2,,,
rotate,144660,"(7.85095,7.50098,21.15039)",0.67893,2.6389,"(7,8,19)",lzr_laser:mirror_rotatable,19,,,
rotate,145060,"(7.85095,7.50098,21.15039)",0.6929,2.6599,"(7,8,19)",lzr_laser:mirror_rotatable,18,,,
rotate,145644,"(7.85095,7.50098,21.15039)",0.6929,2.6599,"(7,8,19)",lzr_laser:mirror_rotatable_on_4,17,,,
place,156998,"(8.62109,4.50098,14.01953)",0.82554,1.5813,"(7,4,14)",,,lzr_laser:skull_cursed_takable 10,"(6,4,14)","(7,4,14)"
dig,164184,"(9.63110,8.50098,1.09375)",0.85347,4.7054,"(11,8,1)",lzr_laser:skull_cursed_takable_on,1,,,
place,171738,"(19.88696,8.50098,11.84375)",0.66846,1.7349,"(18,9,12)",,,lzr_laser:skull_cursed_takable 10,"(18,9,11)","(18,9,12)"
place,172397,"(19.88696,8.50098,11.84375)",0.73129,1.6825,"(19,9,12)",,,lzr_laser:skull_cursed_takable 9,"(18,9,12)","(19,9,12)"
dig,173105,"(19.30701,9.50000,12.28516)",1.021,1.7209,"(18,9,12)",lzr_laser:skull_cursed_takable_on,3,,,
place,174011,"(18.75806,9.50000,12.54102)",0.59167,1.9618,"(16,9,12)",,,lzr_laser:skull_cursed_takable 9,"(16,9,11)","(16,9,12)"
place,175685,"(16.21704,9.50098,12.22266)",0.57421,1.7872,"(13,9,12)",,,lzr_laser:skull_cursed_takable 8,"(13,9,11)","(13,9,12)"
place,177032,"(13.20190,9.50000,12.19141)",0.8395,1.6685,"(11,9,12)",,,lzr_laser:skull_cursed_takable 7,"(11,8,12)","(11,9,12)"
place,178279,"(10.89197,9.50000,12.41602)",0.64403,1.9338,"(8,9,12)",,,lzr_laser:skull_cursed_takable 6,"(8,9,11)","(8,9,12)"
place,181647,"(8.01099,9.50098,12.14258)",0.75224,1.8675,"(6,9,12)",,,lzr_laser:skull_cursed_takable 5,"(6,9,11)","(6,9,12)"
place,183321,"(5.97400,9.50098,12.25781)",0.75224,1.9234,"(4,9,12)",,,lzr_laser:skull_cursed_takable 4,"(4,9,11)","(4,9,12)"
place,184326,"(3.69897,9.50000,12.17578)",0.55676,1.5952,"(1,9,12)",,,lzr_laser:skull_cursed_takable 3,"(0,9,12)","(1,9,12)"
dig,188564,"(5.57397,12.50098,8.15039)",0.24609,6.2657,"(6,14,10)",lzr_laser:skull_cursed_takable_on,0,,,
dig,188715,"(5.68298,12.50098,8.12109)",0.1693,5.9411,"(7,14,10)",lzr_laser:skull_cursed_takable_on,0,,,
dig,188866,"(5.68396,12.50098,8.12109)",0.5044,6.0039,"(6,13,10)",lzr_laser:skull_cursed_takable_on,0,,,
dig,189016,"(5.68396,12.50098,8.12109)",0.15184,5.421,"(8,14,10)",lzr_laser:skull_cursed_takable_on,0,,,
dig,189167,"(5.68396,12.50098,8.12109)",0.054105,5.3407,"(9,14,10)",lzr_laser:skull_cursed_takable_on,0,,,
dig,189336,"(5.68396,12.50098,8.12109)",0.21118,5.3686,"(8,13,10)",lzr_laser:skull_cursed_takable_on,0,,,
dig,189486,"(5.68396,12.50098,8.12109)",0.51487,5.5362,"(7,13,10)",lzr_laser:skull_cursed_takable_on,0,,,
dig,190046,"(6.61987,13.52686,8.43359)",0.73129,5.3233,"(9,13,10)",lzr_laser:skull_cursed_takable_on,0,,,
place,194140,"(16.11597,13.06299,11.54492)",0.78365,0.11868,"(16,13,13)",,,lzr_laser:skull_cursed_takable 10,"(16,13,14)","(16,13,13)"
place,195297,"(14.85095,13.50000,11.39844)",0.84998,5.9027,"(15,13,13)",,,lzr_laser:skull_cursed_takable 9,"(16,13,13)","(15,13,13)"
place,196369,"(14.29907,13.50098,12.87109)",0.66846,1.4905,"(12,13,13)",,,lzr_laser:skull_cursed_takable 8,"(11,13,13)","(12,13,13)"
place,197106,"(14.29907,13.50098,12.87109)",0.89535,1.5254,"(13,13,13)",,,lzr_laser:skull_cursed_takable 7,"(12,13,13)","(13,13,13)"
dig,198505,"(10.53906,13.50000,12.94141)",0.34732,1.8256,"(7,14,12)",lzr_decor:barrel_old,3,,,
dig,198657,"(9.95508,13.50000,12.82617)",0.33685,1.679,"(6,14,12)",lzr_laser:mirror_takable,11,,,
dig,198807,"(9.37695,13.50000,12.77734)",0.33685,1.5708,"(6,14,13)",lzr_decor:barrel_old,3,,,
dig,199112,"(8.40601,13.50000,12.29297)",0.022689,6.2378,"(9,15,14)",lzr_decor:barrel_old,0,,,
dig,202529,"(15.63806,13.06396,11.96875)",0.76271,0.81332,"(15,13,13)",lzr_laser:skull_cursed_takable_on,0,,,
dig,202779,"(15.63806,13.06396,11.96875)",0.41015,1.4172,"(12,13,13)",lzr_laser:skull_cursed_takable_on,3,,,
dig,202930,"(15.63806,13.06396,11.96875)",0.41015,1.2846,"(13,13,13)",lzr_laser:skull_cursed_takable_on,3,,,
rotate,207484,"(7.02112,13.06299,18.90430)",0.20769,0.82379,"(4,14,21)",lzr_laser:emitter_red_rotatable_on,3,,,
rotate,208036,"(7.02112,13.06299,18.90430)",-0.043459,0.80285,"(4,15,21)",lzr_laser:emitter_red_rotatable_on,3,,,
place,210030,"(2.97400,13.50098,19.06250)",0.71035,1.5708,"(1,14,19)",,,lzr_laser:mirror_takable,"(1,13,19)","(1,14,19)"
rotate,210622,"(2.97400,13.50098,19.06250)",0.47647,1.5848,"(1,14,19)",lzr_laser:mirror_takable,19,,,
rotate,211211,"(2.97400,13.50098,19.06250)",0.41364,1.5743,"(1,14,19)",lzr_laser:mirror_takable_on_6,4,,,
rotate,211471,"(2.97400,13.50098,19.06250)",0.41364,1.5743,"(1,14,19)",lzr_laser:mirror_takable_on_6,13,,,
dig,211888,"(2.97400,13.50098,19.06250)",0.50091,1.6092,"(1,14,19)",lzr_laser:mirror_takable_on_6,13,,,
place,215610,"(13.21899,13.06299,19.43164)",0.38223,5.1871,"(16,14,21)",,,lzr_laser:mirror_takable,"(16,13,21)","(16,14,21)"
dig,219819,"(15.65698,13.50000,12.18359)",1.2444,5.2116,"(16,13,13)",lzr_laser:skull_cursed_takable_on,0,,,
place,222077,"(14.98999,13.50098,11.40820)",1.1572,4.2446,"(16,14,11)",,,lzr_laser:skull_cursed_takable 10,"(16,13,11)","(16,14,11)"
place,224653,"(15.66504,14.50000,10.69922)",1.0245,3.3336,"(16,14,9)",,,lzr_laser:skull_cursed_takable 9,"(16,13,9)","(16,14,9)"
place,226508,"(15.86401,14.50000,9.15820)",0.95819,3.1695,"(16,14,7)",,,lzr_laser:skull_cursed_takable 8,"(16,13,7)","(16,14,7)"
place,228775,"(15.78589,14.50000,6.15625)",1.3107,5.4873,"(16,14,6)",,,lzr_laser:skull_cursed_takable 7,"(16,14,7)","(16,14,6)"
place,229791,"(15.76501,14.50000,5.15625)",1.3107,5.4873,"(16,14,5)",,,lzr_laser:skull_cursed_takable 6,"(16,14,6)","(16,14,5)"
place,230730,"(15.70605,14.50000,4.15625)",1.3107,5.4873,"(16,14,4)",,,lzr_laser:skull_cursed_takable 5,"(16,14,5)","(16,14,4)"
place,231619,"(15.70605,14.50000,4.15625)",0.60912,3.3091,"(16,14,2)",,,lzr_laser:skull_cursed_takable 4,"(16,14,1)","(16,14,2)"
find_treasure,234257,"(13.29004,14.50000,0.32813)",0.466,4.66,"(16,15,0)",,,,,
dig,238607,"(15.97107,14.95898,3.50586)",0.94422,6.1854,"(16,14,5)",lzr_laser:skull_cursed_takable_on,1,,,
place,265568,"(10.71997,9.50000,12.21875)",1.014,2.3457,"(10,10,12)",,,lzr_laser:skull_cursed_takable 4,"(10,10,11)","(10,10,12)"
place,266198,"(10.71997,9.50000,12.21875)",1.1641,2.3071,"(10,9,12)",,,lzr_laser:skull_cursed_takable 3,"(10,9,11)","(10,9,12)"
place,268721,"(4.10706,9.50000,11.97656)",0.67544,1.5706,"(2,9,12)",,,lzr_laser:skull_cursed_takable 2,"(1,9,12)","(2,9,12)"
dig,269923,"(0.13501,10.52783,11.67383)",1.4155,4.4155,"(1,9,12)",lzr_laser:skull_cursed_takable_on,3,,,
dig,274042,"(11.62207,13.06299,7.25977)",0.14835,4.5832,"(16,14,7)",lzr_laser:skull_cursed_takable_on,2,,,
dig,274226,"(12.30994,13.06299,7.22656)",0.21468,4.5274,"(16,14,6)",lzr_laser:skull_cursed_takable_on,1,,,
dig,274544,"(13.51001,13.06299,7.19141)",0.2426,3.906,"(16,14,4)",lzr_laser:skull_cursed_takable_on,1,,,
dig,275498,"(14.76599,13.06299,6.31641)",0.16581,3.3406,"(16,14,2)",lzr_laser:skull_cursed_takable_on,2,,,
dig,276087,"(15.08105,13.06299,6.50781)",0.54629,5.976,"(16,14,9)",lzr_laser:skull_cursed_takable_on,2,,,
dig,276446,"(15.38806,13.06299,7.81445)",0.4311,6.105,"(16,14,11)",lzr_laser:skull_cursed_takable_on,1,,,
dig,278893,"(15.98901,13.06299,17.22266)",0.23562,6.2481,"(16,14,21)",lzr_laser:mirror_takable_on_1,1,,,
place,283480,"(15.26404,0.50098,7.29297)",0.13422,4.4993,"(17,2,7)",,,lzr_laser:mirror_takable,"(18,2,7)","(17,2,7)"
rotate,283932,"(15.26404,0.50098,7.29297)",0.10629,4.4958,"(17,2,7)",lzr_laser:mirror_takable,9,,,
rotate,284291,"(15.26404,0.50098,7.29297)",0.032987,4.4958,"(17,2,7)",lzr_laser:mirror_takable,23,,,
rotate,284439,"(15.26404,0.50098,7.29297)",0.032987,4.5098,"(17,2,7)",lzr_laser:mirror_takable,5,,,
rotate,284923,"(15.26404,0.50098,7.29297)",-0.099484,4.5167,"(17,2,7)",lzr_laser:mirror_takable,4,,,
dig,286529,"(15.36987,0.50098,5.46484)",0.046949,5.4627,"(17,2,7)",lzr_laser:mirror_takable_on_4,4,,,
place,286914,"(15.12402,0.50098,5.85742)",0.13771,5.2358,"(17,2,7)",,,lzr_laser:skull_cursed_takable 8,"(18,2,7)","(17,2,7)"
place,287734,"(15.11401,0.50098,5.87695)",0.053931,5.2498,"(16,2,7)",,,lzr_laser:mirror_takable,"(17,2,7)","(16,2,7)"
rotate,288546,"(15.11401,0.50098,5.87695)",-0.15533,5.4034,"(16,2,7)",lzr_laser:mirror_takable_on_4,4,,,
dig,289525,"(14.18591,0.50098,4.99414)",0.13771,5.5011,"(16,2,7)",lzr_laser:mirror_takable_on_4,4,,,
find_treasure,323644,"(16.93005,13.06299,7.03125)",0.20769,4.6913,"(21,14,7)",,,,,
rotate,346733,"(2.01001,4.50000,16.04492)",0.51487,0.010295,"(2,5,18)",lzr_laser:mirror_rotatable_on_4,4,,,
rotate,346888,"(2.01001,4.50000,16.04492)",0.51487,0.010295,"(2,5,18)",lzr_laser:mirror_rotatable_on_4,22,,,
place,348260,"(0.25195,4.50000,20.15039)",0.53233,5.0997,"(2,5,21)",,,lzr_laser:mirror_takable,"(3,5,21)","(2,5,21)"
dig,348548,"(0.24609,4.50000,20.15039)",0.53233,5.0997,"(2,5,21)",lzr_laser:mirror_takable_on_4,1,,,
rotate,350240,"(1.15002,4.50000,16.98047)",0.66497,5.3859,"(2,5,18)",lzr_laser:mirror_rotatable_on_4,4,,,
rotate,350517,"(1.15002,4.50000,16.98047)",0.66497,5.3859,"(2,5,18)",lzr_laser:mirror_rotatable_on_4,0,,,
find_treasure,375402,"(17.45996,13.06299,18.91406)",0.10996,4.7192,"(21,14,19)",,,,,