dig,3124,"(1.06100,0.50000,22.79102)",0.52342,5.5746,"(3,1,25)",lzr_laser:detector_yellow_takable,0,,,
place,6584,"(4.02500,0.50000,16.74609)",0.86568,6.2729,"(4,0,19)",,,"lzr_laser:detector_yellow_takable 1 0 ""\u0001trigger_id\u0002(4,2,-22982)\u0003""","(4,-1,19)","(4,0,19)"
dig,11610,"(17.08600,2.50000,15.74609)",0.23736,0.20944,"(16,3,20)",lzr_laser:detector_yellow_takable,0,,,
dig,17371,"(17.36900,3.50000,24.32227)",-1.2076,2.3735,"(16,9,23)",lzr_laser:detector_yellow_takable,1,,,
place,22093,"(7.41200,-0.50000,18.15039)",0.79238,4.5344,"(9,0,18)",,,"lzr_laser:detector_yellow_takable 1 0 ""\u0001trigger_id\u0002(17,4,-22987)\u0003""","(9,-1,18)","(9,0,18)"
place,27052,"(2.28100,0.50000,19.93359)",0.92502,4.7857,"(4,0,20)",,,"lzr_laser:detector_yellow_takable 1 0 ""\u0001trigger_id\u0002(17,10,-22984)\u0003""","(4,-1,20)","(4,0,20)"
dig,37567,"(17.41000,2.50000,10.41016)",0.28972,4.7754,"(21,3,11)",lzr_laser:detector_yellow_takable,1,,,
dig,42708,"(7.55100,4.50000,15.67578)",0.27576,5.3269,"(11,5,18)",lzr_laser:detector_yellow_takable,1,,,
dig,51215,"(16.14900,1.17800,5.23047)",-0.27559,4.3598,"(20,4,4)",lzr_laser:detector_yellow_takable,2,,,
place,65484,"(2.26400,0.50000,22.01563)",0.91455,4.7894,"(4,0,22)",,,"lzr_laser:detector_yellow_takable 1 0 ""\u0001trigger_id\u0002(22,4,-22996)\u0003""","(4,-1,22)","(4,0,22)"
place,69711,"(5.96800,0.50000,18.89453)",1.1275,6.2799,"(6,0,20)",,,"lzr_laser:detector_yellow_takable 1 0 ""\u0001trigger_id\u0002(12,6,-22989)\u0003""","(6,-1,20)","(6,0,20)"
place,73359,"(8.03600,0.50000,18.58984)",1.0734,6.2659,"(8,0,20)",,,"lzr_laser:detector_yellow_takable 1 0 ""\u0001trigger_id\u0002(21,5,-23003)\u0003""","(8,-1,20)","(8,0,20)"
find_treasure,75262,"(8.20600,0.50000,15.81836)",0.44488,3.3442,"(9,1,13)",,,,,