dig,1257,"(1.51000,0.50000,10.08789)",0.10472,4.5132,"(3,2,10)",lzr_laser:crate_takable,0,,,
dig,1526,"(1.59900,0.50000,9.55469)",0.52709,4.3527,"(3,1,9)",lzr_laser:crate_takable,0,,,
dig,1777,"(1.97500,0.50000,8.64063)",0.062832,4.2968,"(4,2,8)",lzr_laser:crate_takable,0,,,
dig,2279,"(2.74500,0.50000,6.83203)",0.031416,3.5184,"(4,2,4)",lzr_laser:crate_takable,0,,,
dig,2681,"(2.77300,0.50000,5.75195)",0.21293,3.4242,"(3,2,3)",lzr_laser:crate_takable,0,,,
dig,2880,"(2.77300,0.50000,5.75195)",-0.12549,3.466,"(4,3,3)",lzr_laser:crate_takable,0,,,
place,6750,"(9.60900,0.50000,10.43555)",0.53407,4.9566,"(12,1,11)",,,lzr_laser:crate_takable 6,"(12.00000,0.00000,11.00000)","(12.00000,1.00000,11.00000)"
place,7086,"(9.60900,0.50000,10.43555)",0.75747,5.1101,"(11,1,11)",,,lzr_laser:crate_takable 5,"(11.00000,0.00000,11.00000)","(11.00000,1.00000,11.00000)"
place,7404,"(9.60900,0.50000,10.43555)",1.0716,5.7315,"(10,1,11)",,,lzr_laser:crate_takable 4,"(10.00000,0.00000,11.00000)","(10.00000,1.00000,11.00000)"
place,8106,"(9.60900,1.50000,10.43555)",0.66323,5.0056,"(12,2,11)",,,lzr_laser:crate_takable 3,"(12.00000,1.00000,11.00000)","(12.00000,2.00000,11.00000)"
place,8474,"(9.60900,1.50000,10.43555)",0.8238,5.1732,"(11,2,11)",,,lzr_laser:crate_takable 2,"(11.00000,1.00000,11.00000)","(11.00000,2.00000,11.00000)"
place,9210,"(10.14900,2.18000,10.55469)",0.68766,4.8834,"(12,3,11)",,,lzr_laser:crate_takable,"(12.00000,2.00000,11.00000)","(12.00000,3.00000,11.00000)"
rotate,14954,"(11.03000,2.50000,8.89453)",0.64577,4.7333,"(14,2,9)",lzr_laser:mirror_rotatable,20,,,
rotate,15659,"(11.03000,2.50000,8.89453)",0.64577,4.7333,"(14,2,9)",lzr_laser:mirror_rotatable,16,,,
rotate,16511,"(11.03000,2.50000,8.89453)",0.562,4.7333,"(14,2,9)",lzr_laser:mirror_rotatable,5,,,
rotate,16695,"(11.03000,2.50000,8.89453)",0.562,4.7333,"(14,2,9)",lzr_laser:mirror_rotatable,14,,,
rotate,17803,"(11.03000,2.50000,8.89453)",-0.15341,4.7822,"(14,5,9)",lzr_laser:mirror_rotatable,23,,,
rotate,18087,"(11.03000,2.50000,8.89453)",-0.15341,4.7822,"(14,5,9)",lzr_laser:mirror_rotatable,15,,,
rotate,19253,"(11.03000,2.50000,8.89453)",-0.28955,4.5832,"(14,5,9)",lzr_laser:mirror_rotatable_on_4,6,,,
rotate,19357,"(11.03000,2.50000,8.89453)",-0.28955,4.5832,"(14,5,9)",lzr_laser:mirror_rotatable_on_4,17,,,
rotate,21369,"(11.50000,0.50000,6.84961)",-0.89692,4.3527,"(14,5,6)",lzr_laser:mirror_rotatable,10,,,
rotate,21771,"(11.50000,0.50000,6.84961)",-0.89692,4.3527,"(14,5,6)",lzr_laser:mirror_rotatable,2,,,
rotate,22910,"(11.50000,0.50000,6.84961)",-0.82711,4.3422,"(14,5,6)",lzr_laser:mirror_rotatable_on_4,18,,,
rotate,24283,"(11.50000,0.50000,6.84961)",-0.097564,4.3492,"(14,2,6)",lzr_laser:mirror_rotatable,19,,,
rotate,24970,"(11.50000,0.50000,6.84961)",0.059341,4.1397,"(14,2,6)",lzr_laser:mirror_rotatable_on_4,10,,,
rotate,25120,"(11.50000,0.50000,6.84961)",0.059341,4.1397,"(14,2,6)",lzr_laser:mirror_rotatable_on_4,13,,,
rotate,28384,"(11.90100,0.50000,5.94141)",0.073304,5.0161,"(14,2,6)",lzr_laser:mirror_rotatable_on_4,10,,,
rotate,29994,"(11.99700,0.50000,7.47656)",0.1885,2.8379,"(11,2,6)",lzr_laser:mirror_rotatable_on_4,8,,,
rotate,30513,"(11.99700,0.50000,7.47656)",0.1885,2.8379,"(11,2,6)",lzr_laser:mirror_rotatable_on_4,0,,,
rotate,31769,"(11.94000,0.50000,5.33203)",0.28274,2.7262,"(11,2,3)",lzr_laser:mirror_rotatable,20,,,
rotate,32169,"(11.94000,0.50000,5.33203)",0.28274,2.7262,"(11,2,3)",lzr_laser:mirror_rotatable,10,,,
rotate,32572,"(11.94000,0.50000,5.33203)",0.28274,2.7262,"(11,2,3)",lzr_laser:mirror_rotatable,2,,,
rotate,33324,"(11.94000,0.50000,5.33203)",0.14661,2.8449,"(11,2,3)",lzr_laser:mirror_rotatable_on_4,3,,,
rotate,34681,"(12.43800,0.50000,4.25977)",0.1117,3.7909,"(14,2,3)",lzr_laser:mirror_rotatable_on_4,1,,,
rotate,40058,"(10.18800,0.50000,2.15039)",-0.013788,1.2113,"(8,2,3)",lzr_laser:mirror_rotatable,14,,,
rotate,40505,"(10.18800,0.50000,2.15039)",-0.013788,1.2113,"(8,2,3)",lzr_laser:mirror_rotatable,13,,,
rotate,41833,"(10.18800,0.50000,2.15039)",-0.92502,1.138,"(8,5,3)",lzr_laser:mirror_rotatable,0,,,
rotate,42283,"(10.18800,0.50000,2.15039)",-0.92502,1.138,"(8,5,3)",lzr_laser:mirror_rotatable,12,,,
rotate,43123,"(10.18800,0.50000,2.15039)",-0.93201,0.98088,"(8,5,3)",lzr_laser:mirror_rotatable_on_1,7,,,
rotate,43490,"(10.18800,0.50000,2.15039)",-0.93201,0.98088,"(8,5,3)",lzr_laser:mirror_rotatable_on_1,18,,,
rotate,47593,"(10.36000,0.50000,5.15039)",-0.87965,1.1694,"(8,5,6)",lzr_laser:mirror_rotatable_on_1,17,,,
rotate,52070,"(10.36000,0.50000,5.15039)",-1.0018,1.138,"(8,5,6)",lzr_laser:mirror_rotatable_on_1,21,,,
rotate,55337,"(10.40500,0.50000,5.09180)",-0.96691,1.1378,"(8,5,6)",lzr_laser:mirror_rotatable_on_1,13,,,
rotate,62751,"(10.08200,0.50000,1.79297)",-0.97389,1.0784,"(8,5,3)",lzr_laser:mirror_rotatable_on_1,7,,,
rotate,64144,"(10.68300,0.50000,1.20898)",-0.92153,6.0737,"(11,5,3)",lzr_laser:mirror_rotatable,7,,,
rotate,64658,"(10.68300,0.50000,1.20898)",-0.92153,6.0772,"(11,5,3)",lzr_laser:mirror_rotatable,12,,,
rotate,65281,"(10.68300,0.50000,1.20898)",-0.92502,6.0772,"(11,5,3)",lzr_laser:mirror_rotatable,9,,,
rotate,66369,"(10.68300,0.50000,1.20898)",-1.0681,6.0493,"(11,5,3)",lzr_laser:mirror_rotatable_on_1,23,,,
rotate,66619,"(10.68300,0.50000,1.20898)",-1.0681,6.0493,"(11,5,3)",lzr_laser:mirror_rotatable_on_1,5,,,
rotate,77940,"(11.54400,4.50000,-0.15039)",-0.57596,0.0281,"(11,8,3)",lzr_laser:mirror_rotatable,20,,,
rotate,79043,"(11.54400,4.50000,-0.15039)",-0.4852,0.13282,"(11,8,3)",lzr_laser:mirror_rotatable,6,,,
rotate,80617,"(11.54400,4.50000,-0.15039)",-0.55501,0.045553,"(11,8,3)",lzr_laser:mirror_rotatable_on_1,17,,,
rotate,80819,"(11.54400,4.50000,-0.15039)",-0.55501,0.045553,"(11,8,3)",lzr_laser:mirror_rotatable_on_1,8,,,
rotate,84172,"(13.47100,4.50000,0.37695)",-0.42237,0.58311,"(11,8,3)",lzr_laser:mirror_rotatable_on_1,15,,,
rotate,88091,"(14.27800,5.50000,5.88672)",-0.18151,1.5291,"(11,8,6)",lzr_laser:mirror_rotatable_on_1,0,,,
rotate,88594,"(14.27800,5.50000,5.88672)",-0.18151,1.5256,"(11,8,6)",lzr_laser:mirror_rotatable_on_1,12,,,
rotate,89732,"(14.27800,5.50000,5.88672)",-0.34208,1.5116,"(11,8,6)",lzr_laser:mirror_rotatable_on_1,0,,,
rotate,90451,"(14.27800,5.50000,5.88672)",-0.37001,1.5046,"(14,8,6)",lzr_laser:mirror_rotatable,18,,,
rotate,91153,"(14.27800,5.50000,5.88672)",-0.37001,1.5046,"(14,8,6)",lzr_laser:mirror_rotatable,2,,,
rotate,92057,"(14.27800,5.50000,5.88672)",-0.54803,1.578,"(14,8,6)",lzr_laser:mirror_rotatable_on_1,3,,,
rotate,92578,"(14.27800,5.50000,5.88672)",-0.53058,1.7944,"(14,8,6)",lzr_laser:mirror_rotatable,0,,,
rotate,95493,"(16.33800,4.50000,5.62891)",-0.71558,1.5605,"(14,8,6)",lzr_laser:mirror_rotatable,1,,,
rotate,108220,"(4.98700,4.50000,3.44141)",-0.49916,4.5834,"(8,8,3)",lzr_laser:mirror_rotatable,13,,,
rotate,108738,"(4.98700,4.50000,3.44141)",-0.49916,4.5834,"(8,8,3)",lzr_laser:mirror_rotatable,1,,,
rotate,111401,"(5.21600,4.50000,2.58398)",-0.65973,4.8731,"(8,8,3)",lzr_laser:mirror_rotatable_on_2,9,,,
rotate,111569,"(5.21600,4.50000,2.58398)",-0.64926,4.8731,"(8,8,3)",lzr_laser:mirror_rotatable_on_2,23,,,
rotate,113511,"(4.85000,4.50000,5.42578)",-0.54803,4.7789,"(8,8,6)",lzr_laser:mirror_rotatable,12,,,
rotate,114967,"(4.85000,4.50000,5.42578)",0.21974,4.9115,"(8,5,6)",lzr_laser:mirror_rotatable_on_2,10,,,
rotate,115134,"(4.85000,4.50000,5.42578)",0.21974,4.9115,"(8,5,6)",lzr_laser:mirror_rotatable_on_2,19,,,
rotate,116630,"(5.08800,4.50000,7.16797)",0.35238,5.2571,"(8,5,9)",lzr_laser:mirror_rotatable,9,,,
rotate,117110,"(5.08800,4.50000,7.16797)",0.35238,5.2711,"(8,5,9)",lzr_laser:mirror_rotatable,12,,,
rotate,118149,"(5.08800,4.50000,7.16797)",0.23021,5.3304,"(8,5,9)",lzr_laser:mirror_rotatable_on_2,0,,,
rotate,118316,"(5.08800,4.50000,7.16797)",0.23021,5.3304,"(8,5,9)",lzr_laser:mirror_rotatable_on_2,16,,,
rotate,119788,"(4.85000,4.50000,8.76953)",-0.46775,4.7789,"(8,8,9)",lzr_laser:mirror_rotatable,9,,,
rotate,120744,"(4.85000,4.50000,8.76953)",-0.55851,4.929,"(8,8,9)",lzr_laser:mirror_rotatable_on_2,18,,,
find_treasure,123568,"(4.01600,0.50000,6.14063)",0.30002,1.6268,"(1,1,6)",,,,,