rotate,2589,"(6.70901,0.50000,7.29999)",0.13265,0.066322,"(7,2,10)",lzr_laser:transmissive_mirror_00_rotatable,1,,,
rotate,4729,"(5.69699,1.50000,7.72699)",0.39095,3.8781,"(7,2,6)",lzr_laser:mirror_rotatable,22,,,
rotate,5792,"(7.93701,0.50000,6.94800)",0.23038,4.3563,"(11,2,6)",lzr_laser:bomb_rotatable,17,,,
rotate,8303,"(3.05600,2.06300,8.01401)",-0.4187,5.6828,"(4,5,10)",lzr_laser:bomb_rotatable,8,,,
rotate,9888,"(3.66599,3.06300,8.58600)",-1.1273,0.22689,"(3,7,10)",lzr_laser:double_mirror_00_rotatable,0,,,
rotate,10743,"(3.66599,3.06300,8.58600)",-1.0749,0.47473,"(3,7,10)",lzr_laser:double_mirror_00_rotatable,8,,,
rotate,13808,"(4.26300,2.06300,4.20898)",-0.62465,2.7854,"(4,5,2)",lzr_laser:double_mirror_00_rotatable,12,,,
rotate,18872,"(9.13898,10.50000,12.33301)",0.61087,4.3214,"(11,11,11)",lzr_laser:bomb_rotatable,7,,,
dig,19686,"(9.13898,10.50000,12.33301)",0.58294,5.1382,"(11,11,13)",lzr_decor:barrel_old,6,,,
dig,19838,"(9.13898,10.50000,12.33301)",0.60039,5.5013,"(10,11,14)",lzr_decor:barrel_old,1,,,
rotate,21201,"(7.99500,10.06300,13.13397)",0.58294,0.60737,"(7,11,15)",lzr_laser:bomb_rotatable,8,,,
dig,22030,"(6.30902,10.06300,13.88300)",0.40841,1.1694,"(4,11,15)",lzr_laser:crate_old,0,,,
rotate,24616,"(3.41202,10.50000,14.21298)",-0.63513,1.6965,"(2,14,14)",lzr_laser:double_mirror_00_rotatable,19,,,
rotate,29817,"(3.26202,9.06300,3.98199)",0.12566,3.6512,"(4,11,2)",lzr_laser:double_mirror_00_rotatable,2,,,
rotate,30662,"(3.26202,9.06300,3.98199)",0.12566,3.6512,"(4,11,2)",lzr_laser:double_mirror_20_rotatable,18,,,
rotate,33160,"(3.53900,9.06300,4.00897)",0.010472,3.5291,"(4,11,2)",lzr_laser:double_mirror_20_rotatable,22,,,
rotate,34131,"(3.53900,9.06300,4.00897)",0.045379,4.098,"(7,11,2)",lzr_laser:double_mirror_20_rotatable,1,,,
rotate,34313,"(3.53900,9.06300,4.00897)",0.045379,4.098,"(7,11,2)",lzr_laser:double_mirror_20_rotatable,9,,,
rotate,34506,"(3.53900,9.06300,4.00897)",0.045379,4.098,"(7,11,2)",lzr_laser:double_mirror_20_rotatable,23,,,
rotate,38697,"(3.04599,9.06300,4.10098)",-0.069639,3.6931,"(4,11,2)",lzr_laser:double_mirror_20_rotatable,14,,,
rotate,43074,"(6.68500,0.50000,7.56802)",-0.010297,3.4313,"(7,2,6)",lzr_laser:mirror_rotatable_on_1,14,,,
rotate,44542,"(6.68500,0.50000,7.56802)",0.14661,3.4278,"(7,2,6)",lzr_laser:mirror_rotatable_on_1,2,,,
rotate,44745,"(6.68500,0.50000,7.56802)",0.14661,3.4278,"(7,2,6)",lzr_laser:mirror_rotatable_on_1,18,,,
rotate,44935,"(6.68500,0.50000,7.56802)",0.14661,3.4278,"(7,2,6)",lzr_laser:mirror_rotatable_on_1,22,,,
rotate,48794,"(16.03998,0.50000,7.55499)",0.10123,6.1261,"(16,2,10)",lzr_laser:mirror_rotatable,20,,,
rotate,49464,"(16.03998,0.50000,7.55499)",0.10123,6.1261,"(16,2,10)",lzr_laser:mirror_rotatable,16,,,
rotate,49619,"(16.03998,0.50000,7.55499)",0.10123,6.1261,"(16,2,10)",lzr_laser:mirror_rotatable,0,,,
rotate,50190,"(16.03998,0.50000,7.55499)",-0.066148,6.2692,"(16,2,10)",lzr_laser:mirror_rotatable_on_1,4,,,
rotate,51957,"(16.03998,0.50000,7.55499)",-0.62814,6.2622,"(16,4,10)",lzr_laser:mirror_rotatable_on_1,15,,,
rotate,53601,"(15.24701,0.50000,8.21698)",0.10472,1.11,"(13,2,10)",lzr_laser:double_mirror_10_rotatable,22,,,
rotate,55090,"(14.18100,0.50000,5.45401)",0.21642,2.6075,"(13,2,3)",lzr_laser:bomb_rotatable,7,,,
rotate,58105,"(14.34399,0.50000,4.15802)",0.11519,2.3981,"(13,2,2)",lzr_laser:double_mirror_01_rotatable,21,,,
dig,64124,"(10.01202,8.50000,3.65900)",0.61087,4.2132,"(12,8,2)",lzr_laser:crate_old,0,,,
dig,64266,"(10.01202,8.50000,3.65900)",0.90059,4.2028,"(12,7,3)",lzr_laser:crate_old,0,,,
dig,64571,"(10.01202,8.50000,3.65900)",0.9704,4.0212,"(11,7,2)",lzr_laser:crate_old,0,,,
rotate,68878,"(9.39600,9.06200,4.30899)",-0.048695,2.3176,"(7,11,2)",lzr_laser:double_mirror_00_rotatable,22,,,
rotate,69658,"(9.39600,9.06200,4.30899)",0.066323,2.2583,"(7,11,2)",lzr_laser:double_mirror_00_rotatable,8,,,
rotate,71041,"(9.39600,9.06200,4.30899)",-0.020769,3.857,"(12,11,2)",lzr_laser:double_mirror_10_rotatable,1,,,
find_treasure,72008,"(9.46201,9.05500,4.05096)",0.12915,3.3718,"(10,10,0)",,,,,
rotate,73060,"(9.51102,8.50000,3.84198)",-0.25464,3.9268,"(12,11,2)",lzr_laser:double_mirror_10_rotatable,9,,,
rotate,73558,"(9.51102,8.50000,3.84198)",-0.24068,3.9827,"(12,11,2)",lzr_laser:double_mirror_10_rotatable,23,,,
rotate,81469,"(13.66998,10.06300,0.85001)",-1.1936,4.796,"(14,14,1)",lzr_laser:double_mirror_00_rotatable,13,,,
dig,87856,"(4.13501,10.50000,11.84601)",1.5621,1.7452,"(4,10,12)",lzr_laser:crate_old,0,,,
rotate,90342,"(3.00400,10.06300,7.05698)",-1.0664,2.6772,"(2,14,6)",lzr_laser:double_mirror_05_rotatable,1,,,
rotate,90821,"(3.00400,10.06300,7.05698)",-1.0664,2.6772,"(2,14,6)",lzr_laser:double_mirror_05_rotatable,5,,,
rotate,91336,"(3.00400,10.06300,7.05698)",-1.0664,2.6772,"(2,14,6)",lzr_laser:double_mirror_05_rotatable,23,,,
rotate,100636,"(13.45099,10.06300,0.86200)",-1.0629,4.7541,"(14,14,1)",lzr_laser:double_mirror_00_rotatable,1,,,
rotate,102512,"(13.45099,10.06300,0.86200)",-1.1606,4.803,"(14,14,1)",lzr_laser:double_mirror_50_rotatable,0,,,
find_treasure,108253,"(9.90802,4.50000,9.85498)",0.060912,3.1903,"(10,6,8)",,,,,
rotate,117199,"(15.38202,5.50000,3.74600)",-0.32987,5.7454,"(16,8,6)",lzr_laser:transmissive_mirror_50_rotatable,9,,,
rotate,117466,"(15.38202,5.50000,3.74600)",-0.32987,5.7454,"(16,8,6)",lzr_laser:transmissive_mirror_50_rotatable,12,,,
rotate,129953,"(3.56299,10.06200,7.39301)",-0.98262,2.2722,"(2,14,6)",lzr_laser:double_mirror_05_rotatable,20,,,
rotate,135124,"(8.36899,10.50000,13.86099)",0.46932,4.5726,"(11,11,14)",lzr_laser:double_mirror_05_rotatable,22,,,
rotate,143673,"(4.03799,9.50000,13.91000)",-0.93724,1.4973,"(2,14,14)",lzr_laser:double_mirror_05_rotatable,23,,,
rotate,147272,"(3.50201,9.50000,13.85602)",-1.0978,1.5078,"(2,14,14)",lzr_laser:double_mirror_05_rotatable,15,,,
rotate,158155,"(16.06598,0.50000,6.70099)",-0.0087266,4.4923,"(19,2,6)",lzr_laser:mirror_rotatable_on_1,5,,,
rotate,158905,"(16.06598,0.50000,6.70099)",-0.51487,4.3771,"(19,4,6)",lzr_laser:mirror_rotatable,6,,,
find_treasure,161840,"(15.96298,0.50000,6.96600)",0.59498,4.1083,"(18,1,6)",,,,,
rotate,166533,"(16.59698,0.50000,6.82901)",-0.70337,4.4783,"(19,4,6)",lzr_laser:mirror_rotatable_on_1,15,,,
rotate,167585,"(16.59698,0.50000,6.82901)",0.095819,4.4609,"(19,2,6)",lzr_laser:mirror_rotatable_on_1,1,,,
rotate,167744,"(16.59698,0.50000,6.82901)",0.095819,4.4609,"(19,2,6)",lzr_laser:mirror_rotatable_on_1,9,,,
rotate,167936,"(16.59698,0.50000,6.82901)",0.095819,4.4609,"(19,2,6)",lzr_laser:mirror_rotatable_on_1,23,,,
rotate,170544,"(16.25000,0.50000,7.78302)",-0.74875,6.2132,"(16,4,10)",lzr_laser:mirror_rotatable_on_1,6,,,
rotate,171983,"(16.15100,0.50000,6.67001)",-0.012217,4.4714,"(19,2,6)",lzr_laser:mirror_rotatable_on_1,5,,,
rotate,173217,"(16.15100,0.50000,6.67001)",-0.59167,4.3003,"(19,4,6)",lzr_laser:mirror_rotatable_on_1,6,,,
rotate,187627,"(11.58798,11.50000,6.02203)",-1.5481,4.5693,"(12,17,6)",lzr_laser:double_mirror_60_rotatable,14,,,
rotate,188252,"(11.58798,11.50000,6.02203)",-1.5481,4.5693,"(12,17,6)",lzr_laser:double_mirror_60_rotatable,22,,,
find_treasure,191614,"(10.43402,10.50000,11.39600)",0.31241,4.6775,"(14,11,11)",,,,,
rotate,194324,"(9.79199,10.50000,6.37900)",0.5044,4.3354,"(12,11,6)",lzr_laser:double_mirror_01_rotatable,20,,,
rotate,195052,"(9.79199,10.50000,6.37900)",0.53233,4.6914,"(12,11,6)",lzr_laser:double_mirror_10_rotatable,23,,,
rotate,197577,"(9.79199,10.50000,6.37900)",0.3543,4.5098,"(12,11,6)",lzr_laser:double_mirror_01_rotatable,15,,,
rotate,212377,"(16.35699,0.50000,7.16098)",0.064577,4.3424,"(19,2,6)",lzr_laser:mirror_rotatable_on_1,1,,,
rotate,212563,"(16.35699,0.50000,7.16098)",0.064577,4.3424,"(19,2,6)",lzr_laser:mirror_rotatable_on_1,9,,,
rotate,212745,"(16.35699,0.50000,7.16098)",0.064577,4.3424,"(19,2,6)",lzr_laser:mirror_rotatable_on_1,23,,,
rotate,214646,"(16.34601,0.50000,7.36099)",-0.64036,0.33161,"(16,4,10)",lzr_laser:mirror_rotatable_on_1,15,,,
rotate,215064,"(16.34601,0.50000,7.36099)",-0.64036,0.33161,"(16,4,10)",lzr_laser:mirror_rotatable_on_1,8,,,
rotate,216178,"(16.90302,0.50000,7.04800)",0.022689,4.1958,"(19,2,6)",lzr_laser:mirror_rotatable_on_1,9,,,
rotate,216614,"(16.90302,0.50000,7.04800)",0.022689,4.1958,"(19,2,6)",lzr_laser:mirror_rotatable_on_1,23,,,
rotate,216783,"(16.90302,0.50000,7.04800)",0.022689,4.1958,"(19,2,6)",lzr_laser:mirror_rotatable_on_1,5,,,
find_treasure,224740,"(14.58301,5.50000,3.27597)",0.41364,5.407,"(16,6,5)",,,,,