dig,1607,"(4.03100,2.50000,4.10547)",0.58626,5.9025,"(5,3,6)",lzr_laser:mirror_takable,3,,,
dig,6111,"(6.94100,4.48100,10.91016)",0.8587,4.5693,"(10,3,11)",lzr_laser:mirror_takable,0,,,
dig,7869,"(9.23600,3.50000,7.22266)",1.2287,2.6564,"(9,2,6)",lzr_laser:mirror_takable,13,,,
dig,12842,"(8.98800,-0.43000,1.03125)",0.25115,5.3547,"(11,1,2)",lzr_laser:mirror_takable,1,,,
place,17715,"(9.40500,2.50000,5.92188)",0.51644,1.5568,"(8,3,6)",,,lzr_laser:mirror_takable 4,"(7.00000,3.00000,6.00000)","(8.00000,3.00000,6.00000)"
rotate,18518,"(9.40500,2.50000,5.92188)",1.0158,1.5078,"(8,3,6)",lzr_laser:mirror_takable_on_1,15,,,
place,20293,"(9.14900,1.50000,5.94922)",0.95644,1.5499,"(8,1,6)",,,lzr_laser:mirror_takable 3,"(7.00000,1.00000,6.00000)","(8.00000,1.00000,6.00000)"
rotate,21415,"(9.14900,1.50000,5.94922)",0.85521,1.5499,"(8,1,6)",lzr_laser:mirror_takable,19,,,
place,24334,"(4.47300,3.50000,9.44922)",0.60371,2.2757,"(3,4,8)",,,lzr_laser:mirror_takable 2,"(3.00000,3.00000,8.00000)","(3.00000,4.00000,8.00000)"
place,25118,"(4.47300,3.50000,9.44922)",0.6456,2.1675,"(3,4,9)",,,lzr_laser:mirror_takable,"(3.00000,4.00000,8.00000)","(3.00000,4.00000,9.00000)"
dig,25604,"(4.47300,3.50000,9.44922)",0.60371,2.548,"(3,4,8)",lzr_laser:mirror_takable,3,,,
dig,26389,"(3.44900,3.50000,7.25977)",0.27559,2.6632,"(2,4,4)",lzr_laser:mirror_takable,3,,,
rotate,28398,"(4.50200,3.50000,9.92578)",0.4468,1.9022,"(3,4,9)",lzr_laser:mirror_takable,7,,,
place,31362,"(8.54900,2.50000,10.15039)",0.16406,2.8552,"(8,4,9)",,,lzr_laser:mirror_takable 2,"(8.00000,4.00000,8.00000)","(8.00000,4.00000,9.00000)"
rotate,31947,"(8.54900,2.50000,10.15039)",0.58294,2.6073,"(8,4,9)",lzr_laser:mirror_takable,6,,,
place,34091,"(8.86600,0.50000,9.07031)",0.747,1.5951,"(8,1,9)",,,lzr_laser:mirror_takable,"(7.00000,1.00000,9.00000)","(8.00000,1.00000,9.00000)"
rotate,35430,"(8.86600,0.50000,9.07031)",1.1065,1.808,"(8,1,9)",lzr_laser:mirror_takable,19,,,
rotate,36487,"(8.86600,0.50000,9.07031)",0.72257,1.5392,"(8,1,9)",lzr_laser:mirror_takable,4,,,
rotate,36889,"(8.86600,0.50000,9.07031)",0.72257,1.5392,"(8,1,9)",lzr_laser:mirror_takable,13,,,
find_treasure,38760,"(7.65900,2.50000,9.84961)",0.46426,1.4973,"(5,3,10)",,,,,