dig,619,"(6.00000,0.50000,14.00000)",0.0069813,2.0837,"(3,2,13)",lzr_laser:mirror_takable,3,,,
dig,1909,"(5.98500,0.50000,10.89258)",0.75398,3.494,"(7,1,10)",lzr_laser:mirror_takable,16,,,
dig,2083,"(6.01100,0.50000,10.25000)",0.70511,4.1783,"(8,1,9)",lzr_laser:mirror_takable,5,,,
dig,2461,"(6.53400,0.50000,9.39453)",0.25482,4.7785,"(8,2,10)",lzr_laser:mirror_takable,1,,,
dig,2778,"(6.53400,0.50000,9.39453)",0.49218,4.2619,"(8,1,8)",lzr_laser:mirror_takable,5,,,
dig,2929,"(6.67200,0.50000,9.23633)",0.48171,3.7874,"(8,1,7)",lzr_laser:mirror_takable,10,,,
dig,3166,"(6.94900,0.50000,8.82227)",0.25482,3.4067,"(8,2,6)",lzr_laser:mirror_takable,2,,,
dig,3381,"(7.02800,0.50000,8.44141)",0.3002,3.2184,"(7,1,6)",lzr_laser:mirror_takable,14,,,
dig,3570,"(7.04700,0.50000,8.31250)",0.3735,2.5201,"(5,1,6)",lzr_laser:mirror_takable,14,,,
dig,3719,"(7.04700,0.50000,8.31250)",0.38746,1.1622,"(4,1,9)",lzr_laser:mirror_takable,11,,,
dig,3902,"(6.79400,0.50000,8.41797)",0.24435,1.1622,"(4,2,10)",lzr_laser:mirror_takable,0,,,
dig,4168,"(6.38700,0.50000,8.57617)",0.31765,0.95627,"(5,1,10)",lzr_laser:mirror_takable,16,,,
dig,4606,"(5.92100,0.50000,8.50195)",0.85172,1.7626,"(4,1,8)",lzr_laser:mirror_takable,11,,,
dig,4755,"(5.61900,0.50000,8.44531)",0.5969,2.1396,"(4,1,7)",lzr_laser:mirror_takable,11,,,
dig,4988,"(5.72800,0.50000,8.04102)",0.27576,2.3946,"(4,2,6)",lzr_laser:mirror_takable,3,,,
dig,6799,"(5.98300,0.50000,2.96875)",0.54105,1.6474,"(4,1,3)",lzr_laser:mirror_takable,0,,,
place,11087,"(4.79300,0.50000,8.04297)",-1.0121,4.5516,"(6,4,8)",,,lzr_laser:mirror_takable 16,"(6,5,8)","(6,4,8)"
place,12494,"(6.29200,0.50000,9.76367)",-1.0261,3.4418,"(7,5,8)",,,lzr_laser:mirror_takable 15,"(7,6,8)","(7,5,8)"
place,12796,"(6.29200,0.50000,9.76367)",-0.87947,3.4348,"(7,4,8)",,,lzr_laser:mirror_takable 14,"(7,5,8)","(7,4,8)"
rotate,13834,"(6.29200,0.50000,9.76367)",-0.82362,2.974,"(6,4,8)",lzr_laser:mirror_takable,5,,,
rotate,14087,"(6.29200,0.50000,9.76367)",-0.82362,2.974,"(6,4,8)",lzr_laser:mirror_takable,23,,,
rotate,14854,"(6.29200,0.50000,9.76367)",-0.83409,2.9671,"(6,4,8)",lzr_laser:mirror_takable,9,,,
rotate,15743,"(6.29200,0.50000,9.76367)",-0.9355,3.1451,"(6,4,8)",lzr_laser:mirror_takable_on_3,18,,,
rotate,16247,"(6.29200,0.50000,9.76367)",-0.9355,3.159,"(6,4,8)",lzr_laser:mirror_takable_on_3,7,,,
rotate,17502,"(7.77000,1.50000,9.90430)",-0.61436,2.7157,"(7,4,8)",lzr_laser:mirror_takable_on_3,10,,,
rotate,18088,"(7.77000,1.50000,9.90430)",-0.71908,2.6878,"(7,5,8)",lzr_laser:mirror_takable,6,,,
rotate,18712,"(7.77000,1.50000,9.90430)",-0.75747,2.6878,"(7,5,8)",lzr_laser:mirror_takable_on_3,7,,,
place,23382,"(6.61700,4.50000,3.85547)",0.11153,0.094248,"(6,6,6)",,,lzr_laser:mirror_takable 13,"(6,6,7)","(6,6,6)"
place,23751,"(7.53400,4.50000,3.90430)",0.10455,0.10123,"(7,6,7)",,,lzr_laser:mirror_takable 12,"(7,6,8)","(7,6,7)"
place,24387,"(7.58400,4.50000,3.90625)",0.097564,0.17104,"(7,6,6)",,,lzr_laser:mirror_takable 11,"(7,6,7)","(7,6,6)"
rotate,25164,"(7.08700,4.50000,3.84961)",0.097564,0.25831,"(7,6,6)",lzr_laser:mirror_takable,1,,,
rotate,25421,"(7.08700,4.50000,3.84961)",0.097564,0.25831,"(7,6,6)",lzr_laser:mirror_takable_on_4,2,,,
place,29572,"(9.43900,4.50000,10.52344)",0.013788,1.8431,"(6,6,10)",,,lzr_laser:mirror_takable 10,"(6,6,9)","(6,6,10)"
place,30107,"(9.43900,4.50000,10.52344)",0.0068068,2.0246,"(7,6,9)",,,lzr_laser:mirror_takable 9,"(6,6,9)","(7,6,9)"
place,30593,"(9.53800,4.50000,10.26563)",0.094073,1.7453,"(7,6,10)",,,lzr_laser:mirror_takable 8,"(6,6,10)","(7,6,10)"
rotate,31064,"(9.53800,4.50000,10.26563)",0.073129,1.85,"(7,6,10)",lzr_laser:mirror_takable,0,,,
rotate,32170,"(9.53800,4.50000,10.26563)",0.122,1.8535,"(7,6,10)",lzr_laser:mirror_takable,1,,,
place,36743,"(6.45200,6.50000,6.16797)",0.37333,0.055851,"(6,8,8)",,,lzr_laser:mirror_takable 7,"(6,7,8)","(6,8,8)"
place,37128,"(6.95100,6.50000,6.16797)",0.62814,6.2554,"(7,7,9)",,,lzr_laser:mirror_takable 6,"(7,6,9)","(7,7,9)"
dig,37881,"(7.04000,6.50000,6.16797)",0.35238,0.010472,"(7,7,9)",lzr_laser:mirror_takable,0,,,
place,38216,"(7.04000,6.50000,6.16797)",0.74334,6.245,"(7,7,8)",,,lzr_laser:mirror_takable 6,"(7,6,8)","(7,7,8)"
rotate,38853,"(7.04000,6.50000,6.16797)",0.5339,6.2764,"(7,7,8)",lzr_laser:mirror_takable,4,,,
place,39790,"(7.04000,6.50000,6.16797)",0.41521,0.017453,"(7,8,8)",,,lzr_laser:mirror_takable 5,"(7,7,8)","(7,8,8)"
rotate,40846,"(7.04000,6.50000,6.16797)",0.41172,0.094248,"(7,8,8)",lzr_laser:mirror_takable,8,,,
rotate,41382,"(7.04000,6.50000,6.16797)",0.31748,0.080285,"(7,8,8)",lzr_laser:mirror_takable,9,,,
rotate,42539,"(6.32200,6.50000,6.12891)",-0.12915,0.17802,"(6,8,8)",lzr_laser:mirror_takable,4,,,
place,45754,"(9.75900,4.50000,7.24805)",0.083601,1.2113,"(8,6,8)",,,lzr_laser:mirror_takable 4,"(7,6,8)","(8,6,8)"
rotate,46192,"(9.75900,4.50000,7.24805)",0.062657,1.138,"(8,6,8)",lzr_laser:mirror_takable,7,,,
place,48670,"(7.86000,1.77000,6.06836)",1.0367,6.2345,"(8,1,8)",,,lzr_laser:mirror_takable 3,"(8,0,8)","(8,1,8)"
rotate,49543,"(7.86000,1.50000,6.06836)",0.61785,6.1891,"(8,1,8)",lzr_laser:mirror_takable,4,,,
rotate,50380,"(7.86000,1.50000,6.06836)",0.747,0.14312,"(8,1,8)",lzr_laser:mirror_takable,5,,,
place,51939,"(3.93100,1.50100,6.30469)",1.0507,0.059341,"(4,1,8)",,,lzr_laser:mirror_takable 2,"(4,0,8)","(4,1,8)"
rotate,52762,"(3.93100,1.50000,6.30469)",0.69813,6.2624,"(4,1,8)",lzr_laser:mirror_takable,4,,,
place,55074,"(2.85000,2.50000,7.57422)",-0.79238,4.7859,"(4,6,8)",,,lzr_laser:mirror_takable,"(5,6,8)","(4,6,8)"
rotate,56197,"(2.85000,2.50000,7.57422)",-1.1832,4.9464,"(4,6,8)",lzr_laser:mirror_takable_on_1,9,,,
find_treasure,58967,"(5.90700,0.50000,4.58594)",0.40143,3.1732,"(6,1,2)",,,,,