dig,1454,"(2.69409,1.50000,4.10300)",0.50946,0.29671,"(2,2,7)",lzr_laser:emitter_blue_takable_on,0,,,
dig,1605,"(2.62805,1.50000,4.32800)",0.49201,5.9655,"(3,2,7)",lzr_laser:emitter_green_takable_on,0,,,
dig,1756,"(2.62805,1.50000,4.32800)",0.41539,5.7631,"(4,2,7)",lzr_laser:emitter_red_takable_on,0,,,
place,3179,"(4.94800,1.50000,2.75200)",0.47124,1.5219,"(2,2,3)",,,"lzr_laser:emitter_blue_takable_on 1 0 ""\u0001trigger_id\u0002(1319,4,169)\u0003""","(2.00000,1.00000,3.00000)","(2.00000,2.00000,3.00000)"
place,4034,"(4.97302,1.50000,3.93399)",0.47124,1.5638,"(2,2,4)",,,"lzr_laser:emitter_green_takable_on 1 0 ""\u0001trigger_id\u0002(1320,4,169)\u0003""","(2.00000,1.00000,4.00000)","(2.00000,2.00000,4.00000)"
place,4687,"(4.97302,1.50000,4.72000)",0.47124,1.5638,"(2,2,5)",,,"lzr_laser:emitter_red_takable_on 1 0 ""\u0001trigger_id\u0002(1321,4,169)\u0003""","(2.00000,1.00000,5.00000)","(2.00000,2.00000,5.00000)"
find_treasure,5772,"(4.97302,1.50000,4.72000)",0.19548,4.468,"(7,3,4)",,,,,