dig,2043,"(8.09500,-0.50000,6.42188)",0.49567,0.097738,"(8,0,10)",lzr_laser:mirror_takable_on_2,0,,,
dig,3317,"(5.31800,-0.50000,7.93750)",0.080111,0.53058,"(4,1,10)",lzr_laser:mixer_takable,0,,,
dig,4991,"(2.27300,-0.50000,7.95703)",0.63879,1.5359,"(0,0,8)",lzr_laser:mixer_takable,3,,,
dig,6850,"(1.92500,-0.50000,5.05859)",0.24435,1.5778,"(0,1,5)",lzr_laser:mirror_takable_on_2,3,,,
dig,8155,"(2.05600,-0.50000,3.19922)",0.69464,1.8256,"(0,0,3)",lzr_laser:mixer_takable,1,,,
dig,10851,"(4.67900,-0.50000,1.96875)",0.14312,3.2673,"(5,1,0)",lzr_laser:mixer_takable,2,,,
dig,12861,"(7.94900,-0.50000,2.02734)",0.16755,3.1241,"(8,1,0)",lzr_laser:mirror_takable,2,,,
dig,14488,"(8.58600,-0.50000,4.30664)",-0.23719,3.8537,"(10,2,2)",lzr_laser:mirror_takable,2,,,
place,18876,"(7.96800,-0.50000,6.39844)",0.048869,6.2411,"(8,1,8)",,,lzr_laser:mixer_takable 4,"(8.00000,1.00000,9.00000)","(8.00000,1.00000,8.00000)"
rotate,19448,"(7.96800,-0.50000,6.39844)",0.12915,0.24435,"(8,1,8)",lzr_laser:mixer_takable_on_5,1,,,
rotate,19681,"(7.96800,-0.50000,6.39844)",0.13963,0.25831,"(8,1,8)",lzr_laser:mixer_takable,2,,,
place,23246,"(4.92700,-0.50000,4.94141)",0.10472,4.6147,"(6,1,5)",,,lzr_laser:mirror_takable 4,"(7.00000,1.00000,5.00000)","(6.00000,1.00000,5.00000)"
rotate,24003,"(4.92700,-0.50000,4.94141)",0.28274,5.3021,"(6,1,5)",lzr_laser:mirror_takable,2,,,
rotate,24988,"(4.35300,0.50000,5.11914)",0.72606,4.9426,"(6,1,5)",lzr_laser:mirror_takable_on_4,3,,,
place,28070,"(4.65100,-0.50000,7.87891)",0.073304,5.344,"(6,1,8)",,,lzr_laser:mixer_takable 3,"(6.00000,1.00000,9.00000)","(6.00000,1.00000,8.00000)"
rotate,28790,"(4.65100,-0.50000,7.87891)",0.13614,4.3981,"(6,1,8)",lzr_laser:mixer_takable_on_6,0,,,
rotate,29142,"(4.55100,-0.50000,7.91016)",0.15359,4.412,"(6,1,8)",lzr_laser:mixer_takable_on_4,3,,,
place,34151,"(5.85000,0.45200,5.84961)",1.5621,2.5726,"(6,0,6)",,,lzr_laser:mirror_takable 3,"(6.00000,-1.00000,6.00000)","(6.00000,0.00000,6.00000)"
dig,35122,"(5.91800,1.50000,5.70898)",1.4748,0.8587,"(6,0,6)",lzr_laser:mirror_takable,0,,,
place,39087,"(3.85000,-0.50000,1.82422)",1.0001,4.6042,"(5,0,2)",,,lzr_laser:mirror_takable 3,"(5.00000,-1.00000,2.00000)","(5.00000,0.00000,2.00000)"
place,40544,"(4.29800,-0.50000,3.36523)",0.88488,3.0857,"(4,0,2)",,,lzr_laser:mixer_takable 2,"(4.00000,-1.00000,2.00000)","(4.00000,0.00000,2.00000)"
dig,47610,"(4.98800,0.39900,4.74023)",1.157,1.0647,"(4,0,5)",lzr_laser:mixer_takable_on_3,3,,,
place,49955,"(4.26400,-0.50000,4.89258)",1.1116,4.7403,"(5,0,5)",,,lzr_laser:mixer_takable 2,"(5.00000,-1.00000,5.00000)","(5.00000,0.00000,5.00000)"
place,52819,"(6.14900,-0.50000,3.27734)",0.94405,1.5882,"(5,0,3)",,,lzr_laser:mirror_takable 2,"(5.00000,-1.00000,3.00000)","(5.00000,0.00000,3.00000)"
place,56586,"(5.72100,0.50000,2.90039)",0.61593,3.1556,"(6,1,2)",,,lzr_laser:mixer_takable,"(6.00000,1.00000,1.00000)","(6.00000,1.00000,2.00000)"
rotate,57356,"(5.72100,0.50000,3.07617)",1.1011,3.0299,"(6,1,2)",lzr_laser:mixer_takable_on_1,1,,,
rotate,57726,"(5.72100,0.50000,3.07617)",1.0313,3.0299,"(6,1,2)",lzr_laser:mixer_takable,0,,,
place,60722,"(4.30300,1.52500,1.53516)",1.3559,0.05236,"(4,1,2)",,,lzr_laser:mirror_takable,"(4.00000,0.00000,2.00000)","(4.00000,1.00000,2.00000)"
find_treasure,65156,"(4.98600,-0.50000,8.27148)",0.15865,6.1961,"(5,1,10)",,,,,