# Blender 3.6.7 Release Candidate
# www.blender.org
mtllib lzr_treasure_chest_open_laser.mtl
g chest_chest
v 0.500000 0.125000 0.500000
v 0.500000 0.125000 -0.500000
v 0.500000 -0.500000 0.500000
v 0.500000 -0.500000 -0.500000
v -0.500000 0.125000 0.500000
v -0.500000 0.125000 -0.500000
v -0.500000 -0.500000 0.500000
v -0.500000 -0.500000 -0.500000
v 0.500000 0.125000 0.437500
v -0.500000 0.125000 0.437500
v 0.500000 0.125000 -0.437500
v -0.500000 0.125000 -0.437500
v -0.500000 -0.500000 0.437500
v -0.500000 -0.500000 -0.437500
v 0.500000 -0.500000 0.437500
v 0.500000 -0.500000 -0.437500
v 0.437500 0.125000 -0.437500
v 0.437500 0.125000 0.437500
v -0.437500 0.125000 -0.437500
v -0.437500 0.125000 0.437500
v 0.437500 0.125000 0.500000
v -0.437500 0.125000 0.500000
v 0.437500 -0.500000 0.500000
v -0.437500 -0.500000 0.500000
v 0.437500 -0.500000 0.437500
v -0.437500 -0.500000 0.437500
v 0.437500 -0.500000 -0.437500
v -0.437500 -0.500000 -0.437500
v 0.437500 -0.500000 -0.500000
v -0.437500 -0.500000 -0.500000
v 0.437500 0.125000 -0.500000
v -0.437500 0.125000 -0.500000
v 0.437500 -0.437500 -0.437500
v -0.437500 -0.437500 -0.437500
v -0.437500 -0.437500 0.437500
v 0.437500 -0.437500 0.437500
v 0.437500 0.125000 0.437500
v -0.437500 0.125000 0.437500
v -0.437500 -0.437500 0.437500
v 0.437500 -0.437500 0.437500
v 0.062500 0.500000 0.062500
v 0.062500 0.500000 -0.062500
v 0.062500 -0.468750 0.062500
v 0.062500 -0.468750 -0.062500
v -0.062500 0.500000 0.062500
v -0.062500 0.500000 -0.062500
v -0.062500 -0.468750 0.062500
v -0.062500 -0.468750 -0.062500
vn 1.0000 -0.0000 -0.0000
vn -1.0000 -0.0000 -0.0000
vn -0.0000 -1.0000 -0.0000
vn -0.0000 -0.0000 1.0000
vn -0.0000 -0.0000 -1.0000
vn -0.0000 1.0000 -0.0000
vt 1.000000 0.625000
vt 0.937500 0.625000
vt 0.937500 0.000000
vt 1.000000 0.000000
vt 0.000000 0.000000
vt 0.062500 0.000000
vt 0.062500 0.625000
vt 0.000000 0.625000
vt 1.000000 1.000000
vt 0.937500 1.000000
vt 0.937500 0.937500
vt 1.000000 0.937500
vt 1.000000 0.062500
vt 0.937500 0.062500
vt 0.937500 0.000000
vt 1.000000 0.000000
vt 0.000000 0.062500
vt 0.062500 0.062500
vt 0.062500 0.937500
vt 0.000000 0.937500
vt 0.062500 1.000000
vt 0.000000 1.000000
vt 0.000000 0.000000
vt 0.062500 0.000000
vt 0.062500 0.062499
vt 0.937500 0.062499
vt 0.937500 0.937500
vt 0.062500 0.937499
vt 0.062500 0.062500
vt 0.937500 0.062500
vt 0.437500 0.968750
vt 0.437500 0.000000
vt 0.562500 0.000000
vt 0.562500 0.968750
s 0
g chest_top
usemtl top
f 12/13/6 19/14/6 32/15/6 6/16/6
f 5/9/6 22/10/6 20/11/6 10/12/6
f 10/12/6 20/11/6 19/14/6 12/13/6
f 11/17/6 17/18/6 18/19/6 9/20/6
f 9/20/6 18/19/6 21/21/6 1/22/6
f 18/19/6 20/11/6 22/10/6 21/21/6
f 2/23/6 31/24/6 17/18/6 11/17/6
f 31/24/6 32/15/6 19/14/6 17/18/6
f 33/25/6 34/26/6 35/27/6 36/28/6
g chest_bottom
usemtl bottom
f 8/9/3 30/10/3 28/11/3 14/12/3
f 13/13/3 26/14/3 24/15/3 7/16/3
f 14/12/3 28/11/3 26/14/3 13/13/3
f 3/23/3 23/24/3 25/18/3 15/17/3
f 23/24/3 24/15/3 26/14/3 25/18/3
f 15/17/3 25/18/3 27/19/3 16/20/3
f 25/18/3 26/14/3 28/11/3 27/19/3
f 16/20/3 27/19/3 29/21/3 4/22/3
f 27/19/3 28/11/3 30/10/3 29/21/3
g chest_side
usemtl side
f 2/1/1 11/2/1 16/3/1 4/4/1
f 8/5/2 14/6/2 12/7/2 6/8/2
f 7/5/4 24/6/4 22/7/4 5/8/4
f 5/1/2 10/2/2 13/3/2 7/4/2
f 10/2/2 12/7/2 14/6/2 13/3/2
f 3/5/1 15/6/1 9/7/1 1/8/1
f 15/6/1 16/3/1 11/2/1 9/7/1
f 1/1/4 21/2/4 23/3/4 3/4/4
f 21/2/4 22/7/4 24/6/4 23/3/4
f 34/29/4 33/30/4 17/2/4 19/7/4
f 35/29/1 34/30/1 19/2/1 20/7/1
f 36/29/5 35/30/5 20/2/5 18/7/5
f 33/29/2 36/30/2 18/2/2 17/7/2
g chest_front
usemtl front
f 6/1/5 32/2/5 30/3/5 8/4/5
f 4/5/5 29/6/5 31/7/5 2/8/5
f 29/6/5 30/3/5 32/2/5 31/7/5
g chest_laser
usemtl laser
f 44/31/1 42/32/1 41/33/1 43/34/1
f 47/31/2 45/32/2 46/33/2 48/34/2
f 43/31/4 41/32/4 45/33/4 47/34/4
f 48/31/5 46/32/5 42/33/5 44/34/5
l 18 37
l 20 38
l 35 39
l 36 40
