# Blender 3.6.7 Release Candidate
# www.blender.org
mtllib lzr_treasure_chest_lid.mtl
g chest_lid_chest
v 0.499000 0.125000 0.499000
v 0.499000 0.125000 -0.499000
v 0.499000 0.500000 0.499000
v 0.499000 0.500000 -0.499000
v -0.499000 0.125000 0.499000
v -0.499000 0.125000 -0.499000
v -0.499000 0.500000 0.499000
v -0.499000 0.500000 -0.499000
v 0.499000 0.125000 0.437500
v -0.499000 0.125000 0.437500
v 0.499000 0.125000 -0.437500
v -0.499000 0.125000 -0.437500
v -0.499000 0.500000 0.437500
v -0.499000 0.500000 -0.437500
v 0.499000 0.500000 0.437500
v 0.499000 0.500000 -0.437500
v 0.438500 0.125000 -0.438500
v 0.438500 0.125000 0.438500
v -0.438500 0.125000 -0.438500
v -0.438500 0.125000 0.438500
v 0.437500 0.125000 0.499000
v -0.437500 0.125000 0.499000
v 0.437500 0.500000 0.499000
v -0.437500 0.500000 0.499000
v 0.437500 0.500000 0.437500
v -0.437500 0.500000 0.437500
v 0.437500 0.500000 -0.437500
v -0.437500 0.500000 -0.437500
v 0.437500 0.500000 -0.499000
v -0.437500 0.500000 -0.499000
v 0.437500 0.125000 -0.499000
v -0.437500 0.125000 -0.499000
v 0.438500 0.437500 -0.438500
v -0.438500 0.437500 -0.438500
v -0.438500 0.437500 0.438500
v 0.438500 0.437500 0.438500
vn 1.0000 -0.0000 -0.0000
vn -1.0000 -0.0000 -0.0000
vn -0.0000 1.0000 -0.0000
vn -0.0000 -0.0000 1.0000
vn -0.0000 -0.0000 -1.0000
vn -0.0000 -1.0000 -0.0000
vt 1.000000 0.625000
vt 1.000000 1.000000
vt 0.937500 1.000000
vt 0.937500 0.625000
vt 0.000000 1.000000
vt 0.000000 0.625000
vt 0.062500 0.625000
vt 0.062500 1.000000
vt 1.000000 0.000000
vt 1.000000 0.062500
vt 0.937500 0.062500
vt 0.937500 0.000000
vt -0.000000 0.061623
vt -0.000000 -0.000000
vt 0.061623 -0.000000
vt 0.060621 0.060621
vt -0.000000 0.999999
vt -0.000000 0.938376
vt 0.060621 0.939378
vt 0.061623 0.999999
vt 1.000000 0.937500
vt 1.000000 1.000000
vt 0.937500 1.000000
vt 0.937500 0.937500
vt 1.000000 0.061623
vt 1.000000 0.938376
vt 0.939379 0.939378
vt 0.939379 0.060621
vt 1.000000 0.999999
vt 0.938377 0.999999
vt 0.000000 1.000000
vt 0.000000 0.937500
vt 0.062500 0.937500
vt 0.062500 1.000000
vt 0.000000 0.062500
vt 0.062500 0.062500
vt 0.000000 0.000000
vt 0.062500 0.000000
vt 1.000000 -0.000000
vt 0.938377 -0.000000
vt 0.939379 0.060621
vt 0.939379 0.939378
vt 0.060621 0.939378
vt 0.060621 0.060621
vt 0.062500 0.937500
vt 0.937500 0.937500
s 0
g chest_lid_top
usemtl top
f 8/9/3 14/10/3 28/11/3 30/12/3
f 13/21/3 7/22/3 24/23/3 26/24/3
f 14/10/3 13/21/3 26/24/3 28/11/3
f 3/31/3 15/32/3 25/33/3 23/34/3
f 23/34/3 25/33/3 26/24/3 24/23/3
f 15/32/3 16/35/3 27/36/3 25/33/3
f 25/33/3 27/36/3 28/11/3 26/24/3
f 16/35/3 4/37/3 29/38/3 27/36/3
f 27/36/3 29/38/3 30/12/3 28/11/3
g chest_lid_bottom
usemtl bottom
f 12/13/6 6/14/6 32/15/6 19/16/6
f 5/17/6 10/18/6 20/19/6 22/20/6
f 10/18/6 12/13/6 19/16/6 20/19/6
f 11/25/6 9/26/6 18/27/6 17/28/6
f 9/26/6 1/29/6 21/30/6 18/27/6
f 18/27/6 21/30/6 22/20/6 20/19/6
f 2/39/6 11/25/6 17/28/6 31/40/6
f 31/40/6 17/28/6 19/16/6 32/15/6
f 33/41/6 36/42/6 35/43/6 34/44/6
g chest_lid_side
usemtl side
f 2/1/1 4/2/1 16/3/1 11/4/1
f 8/5/2 6/6/2 12/7/2 14/8/2
f 7/5/4 5/6/4 22/7/4 24/8/4
f 5/1/2 7/2/2 13/3/2 10/4/2
f 10/4/2 13/3/2 14/8/2 12/7/2
f 3/5/1 1/6/1 9/7/1 15/8/1
f 15/8/1 9/7/1 11/4/1 16/3/1
f 1/1/4 3/2/4 23/3/4 21/4/4
f 21/4/4 23/3/4 24/8/4 22/7/4
f 35/7/1 20/45/1 19/46/1 34/4/1
f 36/7/5 18/45/5 20/46/5 35/4/5
f 33/7/2 17/45/2 18/46/2 36/4/2
g chest_lid_front
usemtl front
f 6/1/5 8/2/5 30/3/5 32/4/5
f 4/5/5 2/6/5 31/7/5 29/8/5
f 29/8/5 31/7/5 32/4/5 30/3/5
f 34/7/4 19/45/4 17/46/4 33/4/4
