# Blender 3.6.7 Release Candidate
# www.blender.org
mtllib lzr_core_palm_leaves_laser.mtl
g lzr_core_palm_leaves_laser_lzr_core_palm_leaves_laser
v 0.499500 0.499500 -0.499500
v 0.499500 -0.500000 -0.499500
v 0.499500 0.499500 0.499500
v 0.499500 -0.500000 0.499500
v -0.499500 0.499500 -0.499500
v -0.499500 -0.500000 -0.499500
v -0.499500 0.499500 0.499500
v -0.499500 -0.500000 0.499500
v -0.062500 -0.500000 0.062500
v 0.062500 -0.500000 0.062500
v -0.062500 -0.500000 -0.062500
v 0.062500 -0.500000 -0.062500
v -0.062500 0.498500 0.062500
v 0.062500 0.498500 0.062500
v -0.062500 0.498500 -0.062500
v 0.062500 0.498500 -0.062500
vn -0.0000 1.0000 -0.0000
vn -0.0000 -0.0000 -1.0000
vn -0.0000 -0.0000 1.0000
vn 1.0000 -0.0000 -0.0000
vn -1.0000 -0.0000 -0.0000
vt 0.000000 1.000000
vt 0.000000 0.000000
vt 1.000000 0.000000
vt 1.000000 1.000000
vt 0.436655 -0.000751
vt 0.561843 -0.000751
vt 0.561843 0.999249
vt 0.436655 0.999249
vt 0.437406 -0.000751
vt 0.562594 -0.000751
vt 0.562594 0.999249
vt 0.437406 0.999249
vt 0.561843 1.000000
vt 0.436655 1.000000
vt 0.436655 0.000000
vt 0.561843 0.000000
vt 0.562594 1.000000
vt 0.437406 1.000000
vt 0.437406 0.000000
vt 0.562594 0.000000
s 0
g lzr_core_palm_leaves_laser_1
usemtl 1
f 1/1/1 5/2/1 7/3/1 3/4/1
g lzr_core_palm_leaves_laser_2laser
usemtl 2laser
f 12/5/2 11/6/2 15/7/2 16/8/2
f 9/9/3 10/10/3 14/11/3 13/12/3
f 10/13/4 12/14/4 16/15/4 14/16/4
f 11/17/5 9/18/5 13/19/5 15/20/5
g lzr_core_palm_leaves_laser_3
usemtl 3
f 4/3/3 3/4/3 7/1/3 8/2/3
g lzr_core_palm_leaves_laser_4
usemtl 4
f 6/3/2 5/4/2 1/1/2 2/2/2
g lzr_core_palm_leaves_laser_5
usemtl 5
f 2/3/4 1/4/4 3/1/4 4/2/4
g lzr_core_palm_leaves_laser_6
usemtl 6
f 8/3/5 7/4/5 5/1/5 6/2/5
