header,Idea,,,,,,,,
person,Wuzzy,,,1,,,,NONE,
header,Lead Programming,,,,,,,,
person,Wuzzy,,,1,,,,GPL-3.0-or-later,
header,Additional Programming,,,,,,,,
people,Minetest Game developers,,Player model,1,https://github.com/minetest/minetest_game,,,LGPL-2.1-or-later,2
people,Minetest Game developers,,Stairs and slabs,1,https://github.com/minetest/minetest_game,,,LGPL-2.1-or-later,2
person,jp,Jean-Patrick Guerrero,"Decoration blocks from xdecor mod",1,https://github.com/minetest-mods/xdecor,,,BSD-3-Clause,2
person,12Me21,,"Original screwdriver2 mod, used for the rotating hook",1,https://github.com/12Me21/screwdriver2,,,MIT,2
header,Level Design,,,,,,,,
person,Wuzzy,,,1,,,,CC-BY-SA-4.0,
header,2D Graphics,,,,,,,,
person,jp,Jean-Patrick Guerrero,"Water, wood (normal), tree (normal), stone (normal, tile, mossy tile, brick, mossy brick, circular, mossy circular), sandstone brick, sandstone block, gold block, wooden chest, onyx chest, ship lightbox, wood lightbox, light crate, heavy crate, mossy heavy crate, bonfire, seaweed, purple coral, crab grass, fire, wool (cloth), bomb, bookshelf, teleporter, television, pickaxe, bucket",1,https://content.luanti.org/packages/jp/pixelbox/,,default_water.png|default_water_source_animated.png|default_wood.png|default_tree.png|default_tree_top.png|default_stone.png|default_stone_block.png|default_stone_block_mossy.png|default_stone_brick.png|default_stone_brick_mossy.png|default_stone_rune.png|default_stone_rune_mossy.png|default_sandstone_brick.png|default_sandstone_block.png|lzr_treasure_gold_block.png|lzr_treasure_chest_*.png|lzr_treasure_dark_chest_*.png|lzr_decor_ship_lightbox.png|lzr_laser_crate.png|lzr_laser_crate_fixed.png|lzr_laser_crate_fixed_mossy.png|lzr_decor_bonfire.png|lzr_plants_seaweed.png|lzr_plants_coral_purple.png|lzr_plants_crab_grass.png|fire_basic_flame*.png|wool_*.png|lzr_laser_bomb_*.png|lzr_decor_bookshelf.png|lzr_teleporter_*.png|lzr_tools_ultra_pickaxe.png|lzr_tools_ultra_bucket.png|lzr_decor_blanket_table*.png|lzr_decor_working_table*.png,CC0-1.0,2
person,jp,Jean-Patrick Guerrero,"Barrel (normal), cabinet, half cabinet, candle (floor, inventory, wall, wield), cauldron, cobweb, flower pot, empty shelf, iron lightbox, lantern, multishelf, wooden lightbox, woodframed glass, wood frame, chair/table wood, television, barricade, saw",1,https://github.com/minetest-mods/xdecor,,xdecor_barrel_sides.png|xdecor_barrel_top.png|xdecor_cabinet_front.png|xdecor_cabinet_sides.png|xdecor_candle_floor.png|xdecor_candle_inv.png|xdecor_candle_wall.png|xdecor_candle_wield.png|xdecor_cauldron_bottom.png|xdecor_cauldron_side.png|xdecor_cauldron_top_empty.png|xdecor_cauldron_top_idle.png|xdecor_cobweb.png|xdecor_dandelion_white_pot.png|xdecor_dandelion_yellow_pot.png|xdecor_empty_shelf.png|xdecor_geranium_pot.png|xdecor_half_cabinet_front.png|xdecor_half_cabinet_sides.png|xdecor_iron_lightbox.png|xdecor_lantern_inv.png|xdecor_lantern.png|xdecor_multishelf.png|xdecor_rose_pot.png|xdecor_tulip_pot.png|xdecor_viola_pot.png|xdecor_wooden2_lightbox.png|xdecor_woodframed_glass_detail.png|xdecor_woodframed_glass.png|lzr_decor_woodframed_glass_pane.png|lzr_decor_woodframed_glass_pane_top.png|xdecor_wood_frame.png|xdecor_wood_frame_top.png|xdecor_television_*.png|xdecor_wood.png|xdecor_baricade.png|lzr_menu_saw.png,CC0-1.0,2
person,jp,Jean-Patrick Guerrero,"Base image of emitter, detector and lever",1,https://content.luanti.org/packages/jp/pixelbox/,xdecor_wooden_lightbox.png|xdecor_wood_tile.png|xdecor_lever_off.png|xdecor_lever_on.png,lzr_laser_emitter_on.png|lzr_laser_detector.png|lzr_levers_stone_lever_*.png,CC0-1.0,2
person,Wuzzy,,"Extra images for emitter and detector",1,,,lzr_laser_emitter_color_template_off.png|lzr_laser_emitter_color_template_on.png|lzr_laser_emitter_frame.png|lzr_laser_emitter_front_hole.png|lzr_laser_emitter_front.png|lzr_laser_emitter_on_front_hole_mask.png|lzr_laser_emitter_on_front_hole.png|lzr_laser_emitter_on_front.png|lzr_laser_emitter.png|lzr_laser_detector_colored_front.png|lzr_laser_detector_colored_mask.png|lzr_laser_detector_colored.png|lzr_laser_detector_front.png|lzr_laser_detector_on_colored_front.png|lzr_laser_detector_on_colored_hole.png|lzr_laser_detector_on_colored_mask.png|lzr_laser_detector_on_colored.png|lzr_laser_detector_on_front.png|lzr_laser_detector_on.png,CC0-1.0,
person,Wuzzy,,"Sandstone, palm wood, coconut wood, loose wood, mossy wood, cave stone (normal, block, brick, pillar), stone pillar, circular stone, mossy circular stone, forge animation, cold forge, hanging candle, ship’s wheel, mirror, mixer, beam splitter, double mirror, crystal, pillar crystal, triangle crystal, ant grass (small and large), iron grate/bars, rusty iron grate/bars, old crate, old barrel, screws, wooden door, maps, paintings",1,,,default_sandstone.png|lzr_core_palm_wood.png|lzr_core_coconut_wood.png|lzr_core_wood_loose.png|lzr_core_wood_mossy.png|lzr_core_cave_stone*.png|lzr_stairs_cave_stone*.png|lzr_core_stone_pillar.png|lzr_core_stone_pillar_top.png|default_stone_rune.png|default_stone_rune_mossy.png|lzr_decor_forge_*.png|xdecor_candle_hanging.png|lzr_decor_ships_wheel_*.png|lzr_laser_mirror_*.png|lzr_laser_mixer_*.png|lzr_laser_transmissive_mirror_*.png|lzr_laser_double_mirror_*.png|lzr_laser_crystal*.png|lzr_laser_pillar_crystal_frame.png|lzr_laser_triangle_crystal*.png|lzr_plants_small_ant_grass.png|lzr_plants_large_ant_grass.png|lzr_decor_bar.png|lzr_decor_bar_top.png|lzr_decor_grate.png|lzr_decor_rusty_bar.png|lzr_decor_rusty_bar_top.png|lzr_decor_rusty_grate.png|lzr_laser_crate_old.png|lzr_decor_barrel_old*.png|lzr_laser_fixed.png|lzr_laser_fixed_soft.png|lzr_doors_*.png|lzr_menu_map*.png|lzr_menu_painting_*.png,CC0-1.0,
person,Wuzzy,,"Parrots",1,,,lzr_parrot_npc_*.png,CC0-1.0,
person,jp,Jean-Patrick Guerrero,"Player texture",1,https://content.luanti.org/packages/jp/pixelbox/,character.png,character.png,CC0-1.0,
person,Wuzzy,,"Scorched player texture",1,,,character_scorched.png|lzr_hand_hand_scorched.png,CC0-1.0,
person,Wuzzy,,"Raindrop, crosshair, wieldhand, smoke puff, bomb smoke, book interface, damage screen, trigger icons, laser particles, level corner marker, menu item marker, laser patterns, trigger tool, forbidden icon",1,,,lzr_weather_rain.png|crosshair.png|object_crosshair.png|wieldhand.png|smoke_puff.png|lzr_laser_bomb_smoke_*.png|lzr_laser_overload_smoke.png|lzr_infobooks_*.png|lzr_damage_screen_*.png|lzr_triggers_icon_*.png|lzr_laser_particle*.png|lzr_laser_laser_end_debug.png|lzr_laser_laser_end_debug_extra.png|lzr_gui_level_corner.png|lzr_gui_menu_marker.png|lzr_laser_pattern*.png|lzr_laser_trigger_tool*.png|lzr_menu_tooltip_icon.png|lzr_protection_forbidden.png,CC0-1.0,1
person,Wuzzy,,"Main menu images",1,,,background.png|header*.png|header*svg|icon.png|footer.png,CC-BY-SA-4.0,1
person,VanessaE,Vanessa Ezekowitz,Vessels shelf,1,https://github.com/minetest/minetest_game,vessels_shelf.png,lzr_decor_vessels_shelf.png,CC-BY-SA-3.0,2
person,StarNinjas,,"Ocean stone (all variants), ocean lantern",1,https://github.com/starninjas/xocean,xocean_*.png,xocean_*.png|lzr_decor_ocean_*.png,MIT,2
person,Termos,,"Island-style blocks: Dirt, grass cover, island stone, island grass, sand, seabed, shrub leaves, palm tree, twigs",1,https://content.luanti.org/packages/Termos/islands/,default_dirt.png|default_grass.png|default_grass_side.png|default_stone.png|islands_tall_grass.png|default_rainforest_litter.png|default_rainforest_litter_side.png|default_sand.png|seabed.png|islands_leaves.png|palm_leaves*.png|palm_tree.png|palm_tree_top.png|twigs.png,default_dirt.png|default_grass.png|default_grass_side.png|lzr_core_island_stone.png|islands_tall_grass.png|default_rainforest_litter.png|default_rainforest_litter_side.png|default_sand.png|lzr_core_seabed.png|lzr_core_shrub_leaves.png|lzr_core_palm_leaves*.png|lzr_core_palm_tree.png|lzr_core_palm_tree_top.png|lzr_core_twigs.png,MIT,
person,Extex101,,Wild Cotton,1,https://github.com/minetest/minetest_game,farming_cotton_wild.png,farming_cotton_wild.png,CC-BY-SA-3.0,
person,rudzik8,Mikita Wiśniewski,Skulls,1,,lzr_laser_cskull_*.png|lzr_laser_sskull_*.png,lzr_laser_cskull_*.png|lzr_laser_sskull_*.png,CC-BY-SA-3.0,
person,Neuromancer,,"Coconut and coconut tree",1,https://github.com/Neuromancer56/coconut_tree,coconut*.png,coconut*.png,CC-BY-SA-4.0,
person,Mossmanikin,,Thatch,1,https://github.com/mt-mods/plantlife_modpack,dryplants_thatch.png|dryplants_thatch_wet.png,dryplants_thatch.png|dryplants_thatch_wet.png,CC-BY-SA-4.0,
person,Bonemouse,,Hotbar,1,http://www.minecraftforum.net/topic/242175-Isabella/,gui.png,lzr_gui_hotbar_*.png,CC-BY-3.0,2
person,Q_x,,Dialog window background,1,https://opengameart.org/content/sheet-of-old-paper,sheet of old paper.tif,lzr_gui_bg.png,CC0-1.0,2
person,Lamoot,,Dialog window background,1,https://opengameart.org/content/rpg-gui-construction-kit-v10,paper_background.png,lzr_gui_bg.png,CC-BY-3.0,2
person,Lamoot,,Dialog window button,1,https://opengameart.org/content/rpg-gui-construction-kit-v10,RPG_GUI_v1.png,lzr_gui_button.png|lzr_gui_button_hover.png|lzr_gui_button_pressed.png,CC-BY-3.0,2
people,CraftPix.net,,Hook,1,https://opengameart.org/content/48-pirate-stuff-icons,Icon39.png,lzr_hook_hook.png,LicenseRef-1,2
person,MCL <temp1@cubesoftware.xyz>,,Speaker,1,,xdecor_speaker_*.png,lzr_menu_speaker_*.png,CC-BY-4.0,
person,Wuzzy,,"Any texture not listed above",1,,,,CC-BY-SA-4.0,
header,3D Graphics,,,,,,,,
person,Wuzzy,,"Mirror, double mirror, beam splitter, crystal, pillar_crystal, triangle crystal, hollow barrel, ship’s wheel, parrot, chest, palm leaves, half cabinet, laser, menu arrow, pane, slab",1,,,lzr_laser_mirror*.obj|lzr_laser_mirror*.blend|lzr_laser_dmirror*.obj|lzr_laser_dmirror*.blend|lzr_laser_tmirror*.obj|lzr_laser_tmirror*.blend|lzr_laser_crystal*.obj|lzr_laser_crystal*.blend|lzr_laser_pillar_crystal*.obj|lzr_laser_pillar_crystal*.blend|lzr_laser_triangle_crystal*.obj|lzr_laser_triangle_crystal_on.blend|lzr_laser_hollow_barrel*.obj|lzr_laser_hollow_barrel*.blend|lzr_laser_barrel_on.blend|lzr_decor_ships_wheel.obj|lzr_decor_ships_wheel.blender.blend|lzr_parrot_npc_cube.obj|lzr_parrot_npc_parrot.bbmodel|lzr_parrot_npc_parrot.gltf|lzr_treasure_chest*.obj|lzr_treasure_chest*.blend|lzr_core_palm_leaves_laser.obj|lzr_laser_burning.obj|lzr_laser_burning.blend|lzr_decor_cabinet_half.obj|lzr_decor_cabinet_half.blend|lzr_laser_laser_*.obj|lzr_laser_laser_111.blend|lzr_menu_arrow.bbmodel|lzr_menu_arrow.gltf|lzr_panes_pane_on.obj|lzr_panes_pane_on.blend|lzr_stairs_slab_*.obj|lzr_stairs_slab_*.blend,CC0-1.0,
person,rudzik8,Mikita Wiśniewski,Skull,1,,lzr_laser_skull.blend|lzr_laser_skull.obj,lzr_laser_skull.blend|lzr_laser_skull.obj,CC-BY-SA-3.0,
person,jp,Jean-Patrick Guerrero,"Table, chair",1,https://github.com/minetest-mods/xdecor,,,CC0-1.0,
people,Minetest Game developers,,Player model,1,https://github.com/minetest/minetest_game,character.b3d|character.blend,character.b3d|character.blend,CC-BY-SA-3.0,
header,Music,,,,,,,,
person,leopaz,Leonardo Paz,Exploring the Ocean,0,https://opengameart.org/content/ocean-music-pack,01_exploring_the_ocean.wav,lzr_ambience_leopaz_exploring_the_ocean.ogg,CC-BY-4.0,1
person,leopaz,Leonardo Paz,Seaside Village,0,https://opengameart.org/content/ocean-music-pack,02_seaside_village.wav,lzr_ambience_leopaz_seaside_village.ogg,CC-BY-4.0,1
person,leopaz,Leonardo Paz,Siren’s Call,0,https://opengameart.org/content/ocean-music-pack,04_sirens_call.wav,lzr_ambience_leopaz_sirens_call.ogg,CC-BY-4.0,1
person,leopaz,Leonardo Paz,Stranded in the Ocean,0,https://opengameart.org/content/ocean-music-pack,05_stranded_in_the_ocean.wav,lzr_ambience_leopaz_stranded_in_the_ocean.ogg,CC-BY-4.0,1
person,Vandalorum,,A Friendly Nautilus Shows us the Way,0,https://opengameart.org/content/water-level-synth-music,vandalorum_-_a_friendly_nautilus_shows_us_the_way.wav,lzr_ambience_vandalorum_a_friendly_nautilus_shows_us_the_way.ogg,CC-BY-4.0,1
person,Vandalorum,,A Mist Hangs Over the Water,0,https://opengameart.org/content/water-level-synth-music,vandalorum_-_a_mist_hangs_over_the_water.wav,lzr_ambience_vandalorum_a_mist_hangs_over_the_water.ogg,CC-BY-4.0,1
person,Vandalorum,,Ruins of the Ancient Atlantians,0,https://opengameart.org/content/water-level-synth-music,vandalorum_-_ruins_of_the_ancient_atlantians.wav,lzr_ambience_vandalorum_ruins_of_the_ancient_atlantians.ogg,CC-BY-4.0,1
person,Vandalorum,,Swept Beneath the Tide,0,https://opengameart.org/content/water-level-synth-music,vandalorum_-_swept_beneath_the_tide.wav,lzr_ambience_vandalorum_swept_beneath_the_tide.ogg,CC-BY-4.0,1
person,Vandalorum,,The Cold Wizard Summons a Storm,0,https://opengameart.org/content/water-level-synth-music,vandalorum_-_the_cold_wizard_summons_a_storm.wav,lzr_ambience_vandalorum_the_cold_wizard_summons_a_storm.ogg,CC-BY-4.0,1
person,,Kevin MacLeod (incompetech.com),Ancient Mystery Waltz Allegro,0,,Ancient Mystery Waltz Allegro.mp3,lzr_ambience_kml_ancient_mystery_waltz_allegro.ogg,CC-BY-4.0,1
person,,Kevin MacLeod (incompetech.com),Ave Marimba,0,,Ave Marimba.mp3,lzr_ambience_kml_ave_marimba.ogg,CC-BY-4.0,1
person,,Kevin MacLeod (incompetech.com),Island Meet and Greet,0,,Island Meet and Greet.mp3,lzr_ambience_kml_island_meet_and_greet.ogg,CC-BY-4.0,1
person,,Kevin MacLeod (incompetech.com),Moonlight Beach,0,,Moonlight Beach.mp3,lzr_ambience_kml_moonlight_beach.ogg,CC-BY-4.0,1
person,,Kevin MacLeod (incompetech.com),Morgana Rides,0,,Morgana Rides.mp3,lzr_ambience_kml_morgana_rides.ogg,CC-BY-4.0,1
person,,Kevin MacLeod (incompetech.com),River Fire,0,,River Fire.mp3,lzr_ambience_kml_river_fire.ogg,CC-BY-4.0,1
person,,Kevin MacLeod (incompetech.com),Tiki Bar Mixer,0,,Tiki Bar Mixer.mp3,lzr_ambience_kml_tiki_bar_mixer.ogg,CC-BY-4.0,1
header,Sound Effects,,,,,,,,
person,Wuzzy,,"Stone digging, dirt footstep/placement/digging, sand footstep/placement/digging, cloth footstep/placement/digging, leaves footstep, grass footstep/digging, jungle litter footstep, water footstep/placement/digging, sticks footstep/placement, forge footstep, inventory full warning",1,,,lzr_sounds_dug_stone.*.ogg|default_dirt_footstep.*.ogg|lzr_sounds_place_dirt.*.ogg|lzr_sounds_dug_dirt*.ogg|default_sand_footstep.*.ogg|lzr_sounds_place_sand.*.ogg|lzr_sounds_dug_sand.*.ogg|lzr_sounds_footstep_cloth.*.ogg|lzr_sounds_place_cloth.*.ogg|lzr_sounds_dug_cloth.*.ogg|lzr_sounds_footstep_leaves.*.ogg|lzr_sounds_footstep_grass.*ogg|lzr_sounds_dug_grass.*.ogg|lzr_sounds_footstep_jungle_litter.*.ogg|lzr_sounds_footstep_water.*.ogg|lzr_sounds_place_water.*.ogg|lzr_sounds_dug_water.*.ogg|lzr_sounds_footstep_sticks.*.ogg|lzr_sounds_place_sticks.ogg|lzr_decor_footstep_forge.*.ogg|lzr_protection_inventory_full.ogg,MIT,
person,KiranKeegan,,Stone footstep,1,,,lzr_sounds_footstep_stone.*.ogg,CC0-1.0,
person,StarNinjas,,Stone placement,1,,,lzr_sounds_place_stone.*.ogg,CC0-1.0,
person,qubodup,Ivan Gabovitch,"Metal digging",1,,,default_dug_metal.*.ogg,CC0-1.0,
person,yadronoff,,Metal digging,1,https://www.freesound.org/people/yadronoff/sounds/320397/,Metal Rumble.wav,default_dig_metal.ogg,CC-BY-3.0,
person,mypantsfelldown,,Metal footstep,1,https://freesound.org/people/mypantsfelldown/sounds/398937/,Metal Footsteps,default_metal_footstep.*.ogg,CC0-1.0,
person,Ogrebane,,Metal placement,1,http://opengameart.org/content/wood-and-metal-sound-effects-volume-2,default_place_node_metal.*.ogg,default_place_node_metal.*.ogg,CC0-1.0,
person,deleted_user_2194797,,Glass footstep,1,https://freesound.org/people/deleted_user_2104797/sounds/325252/,Ding 4,lzr_sounds_footstep_glass.*.ogg,CC0-1.0,2
person,kelsey_w,,Glass digging,1,https://freesound.org/people/kelsey_w/sounds/467039/,Glass Bump.wav,lzr_sounds_dig_glass.ogg,CC-BY-3.0,2
person,kbnevel,,Glass placement,1,https://freesound.org/people/kbnevel/sounds/119839/,Glass_Clink.aif,lzr_sounds_place_glass.*.ogg,CC0-1.0,2
person,Cpfcfan10,,Wood footstep,1,https://freesound.org/people/Cpfcfan10/sounds/522555/,Wooden Stairs,lzr_sounds_footstep_wood.*.ogg,CC-BY-4.0,2
person,youandbiscuitme,,Wood placement and digging,1,https://freesound.org/people/youandbiscuitme/sounds/258244/,wooden object set on table 1,lzr_sounds_place_wood.*.ogg,CC-BY-3.0,2
person,el_boss,,"Normal rotation, wood rotation",1,https://freesound.org/people/el_boss/sounds/560700/,Puzzle piece rotation (clockwise),lzr_hook_rotate.ogg|lzr_sounds_rotate_wood.ogg,CC0-1.0,
person,killamn97,,Glass/mirror rotation,1,https://freesound.org/people/killianm97/sounds/554236/,Rotate Mirror 3.wav,lzr_sounds_rotate_glass.ogg,CC0-1.0,
person,qubodup,Ivan Gabovitch,"Stone rotation",1,https://freesound.org/people/qubodup/sounds/743264/,Stone Touch,lzr_sounds_rotate_stone.ogg,CC0-1.0,
person,MultiMax2121,,Metal rotation,1,https://freesound.org/people/MultiMax2121/sounds/156896/,grenade sound effect.mp3,lzr_sounds_rotate_metal.ogg,CC0-1.0,2
person,PhonosUPF,,Laser emitter activation,1,https://freesound.org/people/PhonosUPF/sounds/501976/,accordion percussion 2a,lzr_laser_emitter_activate.ogg,CC0-1.0,
person,junggle,,Level entering and leaving,1,https://freesound.org/people/junggle/sounds/27355/,accordeon_21.wav,lzr_levels_level_enter.ogg|lzr_levels_level_leave.ogg,CC-BY-4.0,2
person,Fupicat,,Level completion jingle,1,https://freesound.org/people/Fupicat/sounds/521641/,WinBandoneon.wav,lzr_levels_level_complete.ogg,CC0-1.0,2
person,X3nus,,Game completion jingle,1,https://freesound.org/s/449939/,Pirate's Bounty.wav,lzr_levels_level_set_complete.ogg,CC-BY-3.0,1
person,Fourier,,Button,1,https://opengameart.org/content/forward-button-press-ui-sound,button press 1.wav,lzr_sounds_button.ogg,CC-BY-3.0,2
person,florianreichelt,,Barricade burning,1,https://freesound.org/people/florianreichelt/sounds/563012,flames sizzling of a bonfire - FIRE,lzr_laser_quickburn.*.ogg,CC0-1.0,2
person,kevinkace,,Sticks digging / barricade breaking,1,https://freesound.org/people/kevinkace/sounds/66780/,Crate Break 4.wav,lzr_sounds_dug_sticks.ogg,CC0-1.0,
people,The Battle for Wesnoth developers,,Skull footstep/placement/digging/rotation,1,https://github.com/wesnoth/wesnoth/,skeleton-die-1.ogg|skeleton-die-2.ogg|skeleton-hit-1.ogg|skeleton-hit-2.ogg|skeleton-hit-3.ogg,lzr_laser_skull_*.ogg,GPL-2.0-or-later,
person,rubberduck,,"Squeaky wood",1,https://opengameart.org/content/100-cc0-metal-and-wood-sfx,,lzr_sounds_footstep_wood_squeak.*.ogg,CC0-1.0,
person,JUDITH136,,Chest opening,1,https://freesound.org/people/JUDITH136/sounds/408001/,20.wav,lzr_treasure_chest_open.ogg,CC-BY-3.0,
person,Dymewiz,,Chest opening fails,1,https://freesound.org/people/Dymewiz/sounds/131029/,locking a door_02.wav,lzr_treasure_chest_open_fail.ogg,CC-BY-3.0,
person,MAJ061785,,Chest lock breaks,1,https://freesound.org/people/MAJ061785/sounds/85533/,Breaking lock.aif,lzr_treasure_chest_lock_break.ogg,CC-BY-3.0,1
person,MAJ061785,,Chest lock regenerates,1,https://freesound.org/people/MAJ061785/sounds/85533/,Breaking lock.aif,lzr_treasure_chest_lock_regen.ogg,CC-BY-3.0,2
person,Artninja,,Detector activates/deactivates,1,https://freesound.org/people/Artninja/sounds/719255/,lock_mechanisms_from_van,lzr_laser_detector_activate.ogg|lzr_laser_detector_deactivate.ogg,CC-BY-4.0,2
person,Ryding,,Lightbox activates/deactivates,1,https://freesound.org/people/Ryding/sounds/718460/,Flourescent tube,lzr_decor_lightbox_on.ogg|lzr_decor_lightbox_off.ogg,CC-BY-4.0,2
person,mincedbeats,,Speaker turns on/off,1,https://freesound.org/people/mincedbeats/sounds/593996/,Yamaha HS80 Switch.wav,lzr_menu_speaker_turn_on.ogg|lzr_menu_speaker_turn_off.ogg,CC0-1.0,2
person,newagesoup,,Player damage,1,https://freesound.org/people/newagesoup/sounds/348242/,PUNCH-BOXING-03.wav,lzr_damage_damage.ogg,CC0-1.0,
person,klankbeeld,,Skull laugh,1,https://freesound.org/people/klankbeeld/sounds/126113/,laugh.WAV,lzr_fallout_skull_laugh.ogg,CC-BY-4.0,2
person,maximumplay3r,,Bomb fuse,1,https://freesound.org/people/maximumplay3r/sounds/713344/,Fuse Ignition,lzr_laser_bomb_fuse.ogg,CC0-1.0,
person,WaveAdventurer,,Bomb explosion,1,https://freesound.org/people/WaveAdventurer/sounds/732252/,explosion1(crunchier),lzr_laser_bomb_explode.ogg,CC-BY-4.0,2
person,artisticdude,,"Change color, change screw, rotation denied",1,https://opengameart.org/content/rpg-sound-pack,,lzr_laser_change_color.ogg|lzr_laser_change_screw.ogg|lzr_hook_rotate_denied.ogg,CC0-1.0,
person,melle_teich,,Old crate breaks,1,https://freesound.org/people/melle_teich/sounds/628398/,Tearing pieces of wood,lzr_laser_crate_old_break.*.ogg,CC0-1.0,
person,Mito551,,Default block digging/placement,1,https://github.com/minetest/minetest_game,default_dug_node.*.ogg|default_place_node_hard.*.ogg|default_place_node.*.ogg,default_dug_node.*.ogg|default_place_node_hard.*.ogg|default_place_node.*.ogg,CC-BY-SA-3.0,
person,Breviceps,,Parrot curr,1,https://freesound.org/people/Breviceps/sounds/445119/,"Animal / Cartoon - Cooing, Curr - Parrot",lzr_parrot_npc_curr.ogg,CC0-1.0,
person,saha213131,,Door lock,1,https://freesound.org/people/saha213131/sounds/730189/,doorlocked01,lzr_doors_door_locked.ogg,CC0-1.0,
person,mateusboga,,Open book,1,https://freesound.org/people/mateusboga/sounds/614081/,Opening a book,lzr_infobooks_open_book.ogg,CC0-1.0,
person,Sabacky,,Close book,1,https://freesound.org/people/Sabacky/sounds/774136/,Open and Close a Diary Book,lzr_infobooks_close_book.ogg,CC-BY-4.0,2
person,StarNinjas,,Turn book page,1,,book_flip.4.ogg,lzr_infobooks_turn_page.ogg,CC0-1.0,
person,Olichite,,Pull lever,1,https://freesound.org/people/Olichite/sounds/238891/,FX_NOISY_METAL_DOOR_OPEN.wav,lzr_levers_lever_activate.ogg|lzr_levers_lever_deactivate.ogg,CC0-1.0,2
person,Wuzzy,,"Any sound not listed above",1,,,,CC-BY-SA-4.0,
header,Translations,,,,,,,,
person,Wuzzy,,German,1,,,,CC-BY-SA-4.0,
person,Emojigit,,Chinese (traditional),1,,,,CC-BY-SA-4.0,
person,megustanlosfrijoles,,Spanish,1,,,,CC-BY-SA-4.0,
person,Nazalassa,,French,1,,,,CC-BY-SA-4.0,
person,f1refa11,,Russian,1,,,,CC-BY-SA-4.0,
